time,NO2,CO,PM2.5,PM10,SO2,O3
2018-07-31,18.0,9.0,65.0,43.0,2.0,2.0
2018-08-01,20.0,12.0,80.0,96.0,1.0,1.0
2018-08-02,21.0,15.0,79.0,66.0,0.0,0.0
2018-08-03,21.0,10.0,87.0,63.0,1.0,1.0
2018-08-04,22.0,6.0,99.0,71.0,4.0,4.0
2018-05-24,13.0,7.0,82.0,58.0,2.0,2.0
2018-05-25,15.0,9.0,75.0,51.0,2.0,2.0
2018-05-26,15.0,8.0,82.0,55.0,1.0,1.0
2018-05-27,15.0,6.0,68.0,46.0,0.0,0.0
2018-05-28,14.0,7.0,63.0,36.0,0.0,0.0
2018-05-10,15.0,8.0,78.0,58.0,1.0,1.0
2018-05-11,11.0,7.0,71.0,47.0,1.0,1.0
2018-05-12,14.0,9.0,91.0,81.0,2.0,2.0
2018-05-13,14.0,10.0,83.0,70.0,2.0,2.0
2018-05-14,12.0,13.0,85.0,62.0,2.0,2.0
2018-04-27,10.0,17.0,82.0,61.0,0.0,0.0
2018-04-28,10.0,11.0,104.0,110.0,0.0,0.0
2018-04-29,13.0,15.0,112.0,77.0,0.0,0.0
2018-04-30,16.0,12.0,90.0,84.0,1.0,1.0
2018-05-01,9.0,10.0,68.0,45.0,0.0,0.0
2018-04-21,11.0,6.0,91.0,70.0,0.0,0.0
2018-04-22,11.0,11.0,94.0,63.0,0.0,0.0
2018-04-23,12.0,9.0,94.0,68.0,0.0,0.0
2018-04-24,11.0,14.0,107.0,93.0,0.0,0.0
2018-04-25,11.0,11.0,81.0,51.0,0.0,0.0
2018-04-25,11.0,10.0,86.0,53.0,0.0,0.0
2018-04-19,29.0,14.0,130.0,91.0,0.0,0.0
2018-04-20,19.0,9.0,110.0,81.0,0.0,0.0
2018-04-23,10.0,9.0,84.0,62.0,0.0,0.0
2018-04-18,25.0,22.0,189.0,138.0,1.0,1.0
2018-04-09,26.0,11.0,111.0,96.0,1.0,1.0
2018-04-10,28.0,11.0,115.0,97.0,2.0,2.0
2018-04-11,0.0,0.0,134.0,91.0,0.0,0.0
2018-04-12,0.0,0.0,99.0,100.0,0.0,0.0
2018-04-13,0.0,0.0,0.0,0.0,0.0,0.0
2018-04-07,14.0,9.0,95.0,82.0,2.0,2.0
2018-04-08,17.0,15.0,116.0,105.0,1.0,1.0
2018-04-11,0.0,0.0,156.0,104.0,0.0,0.0
2018-03-31,22.0,14.0,135.0,90.0,2.0,2.0
2018-04-01,22.0,11.0,141.0,94.0,3.0,3.0
2018-04-02,22.0,12.0,112.0,77.0,3.0,3.0
2018-04-03,22.0,14.0,96.0,91.0,2.0,2.0
2018-04-04,23.0,13.0,143.0,93.0,2.0,2.0
2018-03-29,20.0,14.0,81.0,75.0,1.0,1.0
2018-03-30,17.0,11.0,105.0,85.0,1.0,1.0
2018-03-28,19.0,9.0,90.0,81.0,1.0,1.0
2018-03-23,18.0,9.0,157.0,114.0,3.0,3.0
2018-03-24,18.0,14.0,135.0,115.0,2.0,2.0
2018-03-25,18.0,12.0,121.0,114.0,1.0,1.0
2018-03-26,20.0,22.0,170.0,134.0,1.0,1.0
2018-03-27,20.0,14.0,132.0,95.0,0.0,0.0
