time,NO2,CO,PM2.5,PM10,SO2,O3
2018-08-09 00:00,22.6,531.0,24.4,38.3,,
2018-08-09 15:00,23.0,69.0,27.0,58.5,,
2018-08-09 16:00,23.0,196.0,31.3,61.7,,
2018-08-09 17:00,16.9,220.0,37.3,76.2,,
2018-08-09 18:00,35.4,248.0,36.0,84.7,,
2018-08-09 19:00,29.8,509.0,47.8,91.2,,
2018-08-09 20:00,54.1,48.0,26.7,55.1,,
2018-08-09 21:00,42.1,390.0,22.8,46.8,,
2018-08-09 22:00,35.1,351.0,20.0,41.6,,
2018-08-09 23:00,63.7,159.0,21.7,39.4,,
2018-08-10 00:00,39.1,224.0,22.9,37.0,,
2018-08-10 01:00,28.3,127.0,17.1,32.3,,
2018-08-10 02:00,28.0,322.0,34.1,70.3,,
2018-08-10 03:00,22.9,537.0,28.7,54.2,,
2018-08-10 04:00,21.7,613.0,33.1,61.3,,
2018-08-10 05:00,20.0,908.0,42.0,75.3,,
2018-08-10 06:00,25.3,1554.0,41.0,85.2,,
2018-08-10 07:00,17.6,1406.0,38.0,72.4,,
2018-08-10 08:00,16.6,1776.0,38.2,81.6,,
2018-08-10 09:00,15.9,1810.0,34.4,65.3,,
2018-08-10 10:00,13.2,1088.0,24.9,46.0,,
2018-08-10 11:00,8.6,1229.0,31.9,62.9,,
2018-08-10 12:00,6.7,918.0,14.8,29.7,,
2018-08-10 13:00,6.5,85.0,15.1,30.1,,
2018-08-10 14:00,6.2,739.0,20.0,38.4,,
2018-08-10 15:00,7.1,1070.0,27.6,54.2,,
2018-08-10 16:00,7.9,1682.0,21.2,40.0,,
2018-08-10 17:00,12.6,182.0,37.2,79.8,,
2018-08-10 18:00,15.8,2169.0,45.0,92.5,,
2018-08-10 19:00,28.3,1489.0,37.5,76.8,,
2018-08-10 20:00,52.5,158.0,38.1,80.9,,
2018-08-10 21:00,33.7,665.0,27.7,56.6,,
2018-08-10 22:00,50.3,1465.0,57.9,107.0,,
2018-08-10 23:00,43.0,1523.0,41.8,126.5,,
2018-08-11 00:00,45.1,464.0,34.1,67.1,,
2018-08-11 01:00,45.1,306.0,22.6,41.6,,
2018-08-11 02:00,32.3,293.0,29.9,50.1,,
2018-08-11 03:00,14.0,340.0,42.8,80.8,,
2018-08-11 04:00,11.3,374.0,27.0,56.5,,
2018-08-11 05:00,15.3,430.0,27.7,58.2,,
2018-08-11 06:00,29.1,389.0,43.8,95.8,,
2018-08-11 07:00,22.0,69.0,40.2,9.0,,
2018-08-11 08:00,14.2,1012.0,36.0,71.2,,
2018-08-11 09:00,18.8,1655.0,25.4,50.7,,
2018-08-11 10:00,8.6,989.0,22.2,48.3,,
2018-08-11 11:00,7.1,589.0,23.0,46.1,,
2018-08-11 12:00,6.5,501.0,27.3,60.7,,
2018-08-11 13:00,5.0,625.0,22.7,39.8,,
2018-08-11 14:00,5.3,785.0,18.6,35.1,,
2018-08-11 15:00,5.8,959.0,33.6,64.4,,
2018-08-11 16:00,12.7,942.0,27.8,55.6,,
2018-08-11 17:00,17.0,1369.0,23.4,48.6,,
2018-08-11 18:00,20.0,1952.0,33.2,62.4,,
2018-08-11 19:00,24.0,377.0,38.6,83.2,,
2018-08-11 20:00,24.3,2643.0,29.9,59.5,,
2018-08-11 21:00,27.9,2478.0,30.5,61.7,,
2018-08-11 22:00,29.5,248.0,27.7,55.5,,
2018-08-11 23:00,29.6,2013.0,27.2,51.8,,
2018-08-12 00:00,26.9,1179.0,17.9,30.9,,
2018-08-12 01:00,32.1,809.0,22.6,45.5,,
2018-08-12 02:00,14.6,719.0,25.7,58.7,,
2018-08-12 03:00,10.7,416.0,31.9,58.2,,
2018-08-12 04:00,7.0,275.0,17.0,38.5,,
2018-08-12 05:00,7.7,321.0,18.2,39.1,,
2018-08-12 06:00,4.9,350.0,29.0,57.0,,
2018-08-12 07:00,8.2,510.0,35.0,70.3,,
2018-08-12 08:00,9.0,908.0,32.9,72.0,,
2018-08-12 09:00,6.9,1099.0,31.7,65.5,,
2018-08-12 10:00,5.3,604.0,28.6,62.0,,
2018-08-12 11:00,4.1,504.0,24.0,52.9,,
2018-08-12 12:00,3.7,309.0,26.0,58.5,,
2018-08-12 13:00,2.0,38.0,23.5,40.7,,
2018-08-12 14:00,1.0,482.0,23.6,44.1,,
2018-08-12 15:00,3.1,422.0,27.0,51.0,,
2018-08-12 16:00,2.4,609.0,25.7,51.7,,
2018-08-12 17:00,6.5,811.0,17.8,29.0,,
2018-08-12 18:00,8.9,2830.0,37.0,73.3,,
2018-08-12 19:00,11.1,4593.0,41.8,82.2,,
2018-08-12 20:00,18.9,1758.0,36.0,71.6,,
2018-08-12 21:00,10.0,963.0,27.1,52.2,,
2018-08-12 22:00,13.9,1414.0,15.1,41.0,,
2018-08-12 23:00,26.4,701.0,22.2,45.5,,
2018-08-13 00:00,10.9,552.0,14.0,31.0,,
2018-08-13 01:00,11.5,1025.0,21.3,44.8,,
2018-08-13 02:00,8.3,1064.0,34.0,65.9,,
2018-08-13 03:00,8.1,444.0,15.5,33.6,,
2018-08-13 04:00,8.7,987.0,19.2,30.5,,
2018-08-13 05:00,13.3,908.0,31.2,61.1,,
2018-08-13 06:00,11.0,1525.0,45.0,92.1,,
2018-08-13 07:00,13.0,1977.0,79.0,137.0,,
2018-08-13 08:00,12.0,3921.0,45.6,91.2,,
2018-08-13 09:00,14.5,2560.0,18.4,35.2,,
2018-08-13 10:00,9.1,1803.0,18.2,43.8,,
2018-08-13 11:00,6.4,1587.0,15.0,31.4,,
2018-08-13 12:00,5.8,1063.0,15.5,43.0,,
2018-08-13 13:00,6.1,675.0,23.1,32.4,,
2018-08-13 14:00,5.35,455.0,21.59,42.98,,
2018-07-31 00:00,32.2,572.0,36.1,73.5,,
2018-07-31 01:00,23.0,400.0,25.0,51.8,,
2018-07-31 02:00,27.4,582.0,24.6,55.0,,
2018-07-31 03:00,22.4,50.0,27.5,48.6,,
2018-07-31 04:00,14.1,502.0,24.0,43.5,,
2018-07-31 05:00,12.0,510.0,37.3,68.0,,
2018-07-31 06:00,13.2,564.0,27.0,51.0,,
2018-07-31 07:00,15.0,836.0,42.8,78.3,,
2018-07-31 08:00,28.2,1121.0,54.5,108.4,,
2018-07-31 09:00,26.4,1000.0,44.4,85.3,,
2018-07-31 10:00,34.1,1050.0,40.7,82.3,,
2018-07-31 11:00,25.3,748.0,41.9,92.4,,
2018-07-31 12:00,17.9,563.0,36.0,76.7,,
2018-07-31 13:00,11.1,395.0,31.0,67.3,,
2018-07-31 14:00,14.8,38.0,17.6,39.6,,
2018-07-31 15:00,23.3,959.0,21.8,41.1,,
2018-07-31 16:00,29.3,942.0,15.1,32.9,,
2018-07-31 17:00,21.0,1162.0,38.7,77.8,,
2018-07-31 18:00,10.6,952.0,26.0,52.2,,
2018-07-31 19:00,16.8,77.0,14.5,22.7,,
2018-07-31 20:00,37.5,643.0,11.4,23.7,,
2018-07-31 21:00,43.6,478.0,7.3,14.7,,
2018-07-31 22:00,27.3,48.0,6.4,10.5,,
2018-07-31 23:00,18.6,512.0,11.8,22.0,,
2018-08-01 00:00,22.0,479.0,9.2,15.4,,
2018-08-01 01:00,23.5,509.0,8.3,17.8,,
2018-08-01 02:00,26.2,719.0,6.3,12.0,,
2018-08-01 03:00,25.2,416.0,9.0,17.4,,
2018-08-01 04:00,26.9,275.0,5.8,12.2,,
2018-08-01 05:00,23.6,321.0,19.9,57.9,,
2018-08-01 06:00,26.0,350.0,20.6,42.3,,
2018-08-01 07:00,27.9,510.0,32.2,59.0,,
2018-08-01 08:00,27.3,908.0,46.0,91.9,,
2018-08-01 09:00,34.2,1092.0,40.2,7.0,,
2018-08-01 10:00,35.0,604.0,32.2,61.3,,
2018-08-01 11:00,37.3,504.0,38.6,75.5,,
2018-08-01 12:00,20.9,309.0,26.2,47.9,,
2018-08-01 13:00,12.2,38.0,26.4,51.2,,
2018-08-01 14:00,13.1,482.0,22.3,43.9,,
2018-08-01 15:00,11.5,196.0,21.3,42.1,,
2018-08-01 16:00,11.6,220.0,15.5,20.3,,
2018-08-01 17:00,6.4,248.0,19.3,31.8,,
2018-08-01 18:00,11.0,509.0,21.8,40.8,,
2018-08-01 19:00,21.9,48.0,32.6,58.0,,
2018-08-01 20:00,23.7,390.0,22.1,41.1,,
2018-08-01 21:00,21.9,351.0,18.4,30.1,,
2018-08-01 22:00,27.7,159.0,22.0,38.4,,
2018-08-01 23:00,30.1,1024.0,39.0,71.0,,
2018-08-02 00:00,28.0,1127.0,18.5,36.5,,
2018-08-02 01:00,14.4,822.0,17.3,32.6,,
2018-08-02 02:00,16.5,937.0,14.6,23.4,,
2018-08-02 03:00,20.8,1013.0,11.6,25.9,,
2018-08-02 04:00,21.1,1108.0,14.6,29.6,,
2018-08-02 05:00,19.3,1554.0,37.6,73.7,,
2018-08-02 06:00,20.1,1406.0,32.2,68.2,,
2018-08-02 07:00,23.5,1776.0,36.2,71.0,,
2018-08-02 08:00,22.6,1810.0,28.1,54.8,,
2018-08-02 09:00,27.7,102.0,18.0,42.1,,
2018-08-02 10:00,26.6,369.0,16.0,34.0,,
2018-08-02 11:00,36.2,931.0,45.8,86.3,,
2018-08-02 12:00,37.5,958.0,33.0,64.5,,
2018-08-02 13:00,34.6,1004.0,18.9,37.2,,
2018-08-02 14:00,20.2,69.0,27.8,56.6,,
2018-08-02 15:00,21.5,758.0,37.1,71.7,,
2018-08-02 16:00,19.7,75.0,32.3,58.9,,
2018-08-02 17:00,17.7,751.0,25.9,41.6,,
2018-08-02 18:00,31.6,1517.0,21.9,42.0,,
2018-08-02 19:00,43.7,881.0,25.0,50.7,,
2018-08-02 20:00,17.0,558.0,24.3,42.9,,
2018-08-02 21:00,22.9,658.0,68.5,14.1,,
2018-08-02 22:00,20.6,842.0,17.0,34.0,,
2018-08-02 23:00,18.9,809.0,21.7,39.7,,
2018-08-03 00:00,22.2,70.0,18.8,33.8,,
2018-08-03 01:00,23.1,591.0,16.6,31.1,,
2018-08-03 02:00,25.5,407.0,14.9,29.1,,
2018-08-03 03:00,24.5,537.0,1.0,25.8,,
2018-08-03 04:00,23.6,602.0,14.0,25.6,,
2018-08-03 05:00,22.0,667.0,23.1,44.3,,
2018-08-03 06:00,20.0,733.0,26.0,51.7,,
2018-08-03 07:00,19.6,1905.0,24.8,50.8,,
2018-08-03 08:00,25.4,1391.0,34.5,68.9,,
2018-08-03 09:00,36.0,1145.0,14.3,36.0,,
2018-08-03 10:00,44.1,979.0,22.1,43.2,,
2018-08-03 11:00,32.0,689.0,31.2,59.0,,
2018-08-03 12:00,18.3,596.0,25.3,52.1,,
2018-08-03 13:00,10.0,515.0,15.9,34.4,,
2018-08-03 14:00,7.0,572.0,17.9,30.6,,
2018-08-03 15:00,5.8,543.0,18.3,41.1,,
2018-08-03 16:00,10.1,650.0,19.6,35.4,,
2018-08-03 17:00,14.7,1373.0,13.0,28.9,,
2018-08-03 18:00,26.5,1052.0,64.1,46.7,,
2018-08-03 19:00,28.9,1005.0,26.1,27.4,,
2018-08-03 20:00,30.2,797.0,48.2,29.1,,
2018-08-03 21:00,26.5,552.0,28.4,26.4,,
2018-08-03 22:00,29.8,455.0,47.9,24.8,,
2018-08-03 23:00,39.2,364.0,81.5,39.7,,
2018-08-04 00:00,37.9,672.0,82.0,59.1,,
2018-08-04 01:00,18.0,551.0,34.0,48.9,,
2018-08-04 02:00,22.8,545.0,23.7,30.0,,
2018-08-04 03:00,16.3,618.0,22.0,15.6,,
2018-08-04 04:00,19.8,51.0,58.7,27.1,,
2018-08-04 05:00,17.0,542.0,48.1,32.7,,
2018-08-04 06:00,21.2,80.0,41.7,39.1,,
2018-08-04 07:00,20.0,1726.0,62.6,26.1,,
2018-08-04 08:00,21.3,1933.0,106.2,33.5,,
2018-08-04 09:00,32.6,1502.0,22.1,41.2,,
2018-08-04 10:00,35.1,1459.0,29.6,57.9,,
2018-08-04 11:00,37.7,1702.0,32.5,62.8,,
2018-08-04 12:00,42.6,1417.0,33.7,64.1,,
2018-08-04 13:00,28.4,1163.0,55.4,161.8,,
2018-08-04 14:00,24.35,1204.7,37.19,80.21,,
2018-05-24 15:00,6.8,311.0,22.7,41.1,,
2018-05-24 16:00,6.1,381.0,21.3,39.7,,
2018-05-24 17:00,10.0,750.0,26.5,58.6,,
2018-05-24 18:00,8.0,523.0,16.9,33.0,,
2018-05-24 19:00,9.8,674.0,19.0,39.7,,
2018-05-24 20:00,8.9,661.0,33.8,52.9,,
2018-05-24 21:00,7.3,475.0,37.3,80.6,,
2018-05-24 22:00,12.4,566.0,26.4,45.5,,
2018-05-24 23:00,22.3,774.0,30.8,64.8,,
2018-05-25 00:00,17.7,546.0,21.5,44.3,,
2018-05-25 01:00,13.7,363.0,35.5,55.0,,
2018-05-25 02:00,12.2,317.0,20.0,52.7,,
2018-05-25 03:00,18.0,490.0,29.5,72.2,,
2018-05-25 04:00,18.3,35.0,29.5,52.0,,
2018-05-25 05:00,34.6,688.0,26.3,51.3,,
2018-05-25 06:00,34.0,790.0,36.3,84.6,,
2018-05-25 07:00,25.3,847.0,40.4,84.2,,
2018-05-25 08:00,17.9,872.0,39.9,61.5,,
2018-05-25 09:00,12.5,711.0,39.2,61.6,,
2018-05-25 10:00,8.3,603.0,24.6,51.3,,
2018-05-25 11:00,6.6,418.0,22.3,45.9,,
2018-05-25 12:00,5.8,340.0,34.3,72.2,,
2018-05-25 13:00,3.9,380.0,22.0,42.2,,
2018-05-25 14:00,3.6,496.0,20.5,35.6,,
2018-05-26 15:00,10.9,698.0,32.6,62.2,,
2018-05-26 16:00,10.8,657.0,37.0,61.9,,
2018-05-26 17:00,11.0,928.0,45.0,60.0,,
2018-05-26 18:00,9.0,783.0,28.6,54.0,,
2018-05-26 19:00,9.4,565.0,28.6,65.6,,
2018-05-26 20:00,12.6,750.0,14.1,58.6,,
2018-05-26 21:00,16.4,801.0,24.2,46.5,,
2018-05-26 22:00,16.6,715.0,26.2,51.8,,
2018-05-26 23:00,5.8,209.0,23.2,48.4,,
2018-05-27 00:00,7.8,531.0,18.5,44.3,,
2018-05-27 01:00,9.7,334.0,36.4,67.6,,
2018-05-27 02:00,9.0,228.0,22.5,45.5,,
2018-05-27 03:00,14.8,334.0,21.5,41.4,,
2018-05-27 04:00,9.4,469.0,24.1,47.4,,
2018-05-27 05:00,12.6,371.0,27.0,57.0,,
2018-05-27 06:00,11.1,428.0,26.2,56.2,,
2018-05-27 07:00,16.8,842.0,72.0,148.7,,
2018-05-27 08:00,19.4,772.0,61.0,104.0,,
2018-05-27 09:00,16.7,766.0,62.1,100.7,,
2018-05-27 10:00,13.2,628.0,40.3,88.2,,
2018-05-27 11:00,8.2,486.0,79.9,198.1,,
2018-05-27 12:00,4.5,303.0,51.2,98.3,,
2018-05-27 13:00,4.9,372.0,18.2,37.0,,
2018-05-27 14:00,3.0,43.0,39.5,74.5,,
2018-05-27 15:00,4.4,436.0,31.0,55.2,,
2018-05-27 16:00,9.3,591.0,21.0,43.9,,
2018-05-27 17:00,9.2,532.0,36.5,61.0,,
2018-05-27 18:00,20.8,1281.0,34.3,62.5,,
2018-05-27 19:00,16.2,86.0,36.3,80.8,,
2018-05-27 20:00,11.0,490.0,29.3,54.6,,
2018-05-27 21:00,16.6,108.0,15.1,45.9,,
2018-05-27 22:00,16.2,741.0,20.8,36.4,,
2018-05-27 23:00,16.3,832.0,29.4,62.0,,
2018-05-28 00:00,8.4,560.0,37.0,70.9,,
2018-05-28 01:00,6.0,362.0,28.3,50.6,,
2018-05-28 02:00,3.3,191.0,22.4,38.5,,
2018-05-28 03:00,1.8,9.0,15.5,34.8,,
2018-05-28 04:00,2.4,219.0,16.6,35.7,,
2018-05-28 05:00,3.5,230.0,21.8,36.2,,
2018-05-28 06:00,3.5,186.0,18.9,34.3,,
2018-05-28 07:00,6.6,450.0,21.2,37.4,,
2018-05-28 08:00,13.0,1024.0,26.2,48.8,,
2018-05-28 09:00,12.1,871.0,19.5,42.8,,
2018-05-28 10:00,12.4,728.0,27.3,57.0,,
2018-05-28 11:00,11.0,743.0,33.4,48.5,,
2018-05-28 12:00,10.3,662.0,26.3,52.0,,
2018-05-28 13:00,8.9,493.0,22.6,45.5,,
2018-05-28 14:00,9.0,619.0,31.0,62.4,,
2018-05-28 15:00,10.8,760.0,44.5,83.0,,
2018-05-28 16:00,12.9,592.0,28.9,62.9,,
2018-05-28 17:00,11.0,67.0,41.0,83.6,,
2018-05-28 18:00,11.7,1010.0,39.3,78.2,,
2018-05-28 19:00,14.0,846.0,51.2,81.5,,
2018-05-28 20:00,14.0,844.0,42.3,79.0,,
2018-05-28 21:00,23.4,1496.0,31.4,7.0,,
2018-05-28 22:00,24.3,1502.0,41.6,89.8,,
2018-05-28 23:00,40.3,1384.0,47.8,94.8,,
2018-05-29 00:00,42.8,1248.0,65.3,127.2,,
2018-05-29 01:00,32.0,1041.0,52.0,103.9,,
2018-05-29 02:00,25.3,794.0,51.5,104.0,,
2018-05-29 03:00,19.7,63.0,44.9,75.8,,
2018-05-29 04:00,26.5,869.0,32.3,60.8,,
2018-05-29 05:00,17.7,96.0,27.8,58.2,,
2018-05-29 06:00,26.0,1067.0,56.4,11.0,,
2018-05-29 07:00,29.97,1191.3,51.62,108.69,,
2018-05-10 00:00,8.9,427.0,15.6,21.4,,
2018-05-10 01:00,7.0,507.0,16.5,33.8,,
2018-05-10 02:00,7.9,507.0,12.3,20.2,,
2018-05-10 03:00,7.4,374.0,15.5,26.3,,
2018-05-10 04:00,10.1,397.0,18.6,34.2,,
2018-05-10 05:00,6.3,458.0,18.5,43.3,,
2018-05-10 06:00,6.6,445.0,25.9,59.6,,
2018-05-10 07:00,14.9,608.0,21.3,39.2,,
2018-05-10 08:00,15.5,1189.0,12.4,34.5,,
2018-05-10 09:00,13.0,1148.0,39.5,64.2,,
2018-05-10 10:00,10.3,559.0,13.2,28.4,,
2018-05-10 11:00,7.9,529.0,12.4,24.0,,
2018-05-10 12:00,8.0,656.0,23.8,42.6,,
2018-05-10 13:00,6.4,403.0,26.5,43.6,,
2018-05-10 14:00,6.6,392.0,16.6,30.9,,
2018-05-10 15:00,12.4,468.0,35.6,68.3,,
2018-05-10 16:00,9.6,443.0,27.9,56.6,,
2018-05-10 17:00,10.4,637.0,41.2,79.9,,
2018-05-10 18:00,10.7,808.0,33.1,62.7,,
2018-05-10 19:00,9.3,679.0,21.6,40.0,,
2018-05-10 20:00,8.7,589.0,18.7,33.1,,
2018-05-10 21:00,,52.0,32.8,66.8,,
2018-05-10 22:00,7.9,467.0,21.4,39.1,,
2018-05-10 23:00,8.7,521.0,11.2,26.4,,
2018-05-11 00:00,6.5,254.0,16.8,29.3,,
2018-05-11 01:00,6.2,313.0,14.2,24.2,,
2018-05-11 02:00,4.81,372.0,18.6,34.5,,
2018-05-11 03:00,3.5,305.0,22.1,41.9,,
2018-05-11 04:00,3.8,270.0,12.7,27.3,,
2018-05-11 05:00,,38.0,13.8,24.7,,
2018-05-11 06:00,7.5,814.0,15.2,27.5,,
2018-05-11 07:00,8.9,825.0,11.0,23.7,,
2018-05-11 08:00,10.5,980.0,18.4,35.6,,
2018-05-11 09:00,8.8,616.0,19.5,37.2,,
2018-05-11 10:00,9.0,726.0,22.7,47.0,,
2018-05-11 11:00,7.7,514.0,10.5,22.4,,
2018-05-11 12:00,6.0,581.0,12.7,23.0,,
2018-05-11 13:00,5.2,486.0,17.5,33.2,,
2018-05-11 14:00,4.8,442.0,15.2,29.4,,
2018-05-11 15:00,6.0,376.0,14.8,29.5,,
2018-05-11 16:00,5.8,413.0,19.2,37.9,,
2018-05-11 17:00,7.6,475.0,21.0,45.2,,
2018-05-11 18:00,10.0,571.0,33.2,61.6,,
2018-05-11 19:00,15.2,749.0,39.7,74.1,,
2018-05-11 20:00,21.6,87.0,37.4,71.7,,
2018-05-11 21:00,15.5,72.0,44.5,86.8,,
2018-05-11 22:00,16.9,727.0,39.6,71.6,,
2018-05-11 23:00,14.3,629.0,35.1,67.4,,
2018-05-12 00:00,11.5,390.0,27.4,52.0,,
2018-05-12 01:00,10.3,446.0,24.1,43.9,,
2018-05-12 02:00,26.2,531.0,21.3,51.6,,
2018-05-12 03:00,38.4,48.0,29.4,60.4,,
2018-05-12 04:00,21.9,470.0,30.2,56.2,,
2018-05-12 05:00,18.4,534.0,28.6,52.6,,
2018-05-12 06:00,21.0,786.0,22.1,51.0,,
2018-05-12 07:00,19.3,695.0,26.9,46.6,,
2018-05-12 08:00,20.7,841.0,21.3,39.1,,
2018-05-12 09:00,21.6,1130.0,32.3,59.4,,
2018-05-12 10:00,21.8,767.0,27.4,54.4,,
2018-05-12 11:00,23.2,478.0,22.1,42.4,,
2018-05-12 12:00,30.1,592.0,29.4,56.3,,
2018-05-12 13:00,25.2,380.0,26.5,46.2,,
2018-05-12 14:00,12.8,48.0,19.8,42.7,,
2018-05-12 15:00,8.0,449.0,22.4,47.2,,
2018-05-12 16:00,10.1,443.0,26.8,54.7,,
2018-05-12 17:00,9.8,642.0,14.2,27.0,,
2018-05-12 18:00,10.3,71.0,31.2,66.0,,
2018-05-12 19:00,17.6,1091.0,36.4,75.1,,
2018-05-12 20:00,7.0,526.0,28.6,57.0,,
2018-05-12 21:00,8.0,574.0,31.2,60.4,,
2018-05-12 22:00,13.1,571.0,29.7,54.2,,
2018-05-12 23:00,21.1,1360.0,36.8,71.2,,
2018-05-13 00:00,24.9,1075.0,32.2,64.6,,
2018-05-13 01:00,17.0,674.0,21.4,44.0,,
2018-05-13 02:00,13.7,598.0,22.9,39.1,,
2018-05-13 03:00,8.7,444.0,18.6,37.9,,
2018-05-13 04:00,5.6,338.0,16.1,31.9,,
2018-05-13 05:00,8.0,636.0,17.9,33.4,,
2018-05-13 06:00,13.2,578.0,21.2,38.7,,
2018-05-13 07:00,12.4,73.0,31.2,59.5,,
2018-05-13 08:00,11.7,652.0,35.8,68.0,,
2018-05-13 09:00,10.6,734.0,33.2,65.8,,
2018-05-13 10:00,9.6,830.0,29.4,56.8,,
2018-05-13 11:00,9.3,59.0,21.4,44.2,,
2018-05-13 12:00,6.0,526.0,17.5,32.3,,
2018-05-13 13:00,4.56,361.0,22.5,46.7,,
2018-05-13 14:00,7.2,388.0,21.4,40.7,,
2018-05-13 15:00,8.6,202.0,20.5,38.7,,
2018-05-13 16:00,13.0,505.0,24.1,46.5,,
2018-05-13 17:00,11.3,587.0,19.7,32.1,,
2018-05-13 18:00,9.1,483.0,24.7,47.6,,
2018-05-13 19:00,14.5,790.0,26.8,52.5,,
2018-05-13 20:00,18.2,1275.0,39.1,77.5,,
2018-05-13 21:00,16.7,977.0,28.6,54.2,,
2018-05-13 22:00,19.2,98.0,29.5,61.8,,
2018-05-13 23:00,22.5,921.0,26.2,54.1,,
2018-05-14 00:00,21.9,92.0,26.8,51.2,,
2018-05-14 01:00,18.0,471.0,21.5,38.3,,
2018-05-14 02:00,19.1,632.0,16.2,30.5,,
2018-05-14 03:00,14.3,464.0,34.9,67.0,,
2018-05-14 04:00,13.4,351.0,18.5,34.1,,
2018-05-14 05:00,16.7,419.0,14.2,25.4,,
2018-05-14 06:00,22.8,842.0,14.2,25.9,,
2018-05-14 07:00,22.7,1144.0,22.7,43.9,,
2018-05-14 08:00,24.3,138.0,27.4,51.2,,
2018-05-14 09:00,23.1,836.0,35.7,66.9,,
2018-05-14 10:00,19.4,470.0,22.5,40.9,,
2018-05-14 11:00,16.4,409.0,21.0,32.5,,
2018-05-14 12:00,18.4,250.0,19.4,34.3,,
2018-05-14 13:00,16.4,584.0,28.4,50.6,,
2018-05-14 14:00,14.5,579.0,28.46,54.76,,
2018-04-27 00:00,7.9,756.0,26.6,50.8,,
2018-04-27 01:00,10.2,813.0,36.0,72.0,,
2018-04-27 02:00,7.9,718.0,27.3,51.4,,
2018-04-27 03:00,7.0,610.0,37.6,75.0,,
2018-04-27 04:00,5.3,709.0,25.0,47.5,,
2018-04-27 05:00,4.56,718.0,39.3,37.9,,
2018-04-27 06:00,5.0,581.0,34.7,68.1,,
2018-04-27 07:00,6.8,742.0,26.6,45.9,,
2018-04-27 08:00,9.4,1518.0,31.3,66.4,,
2018-04-27 09:00,10.2,1392.0,41.1,81.8,,
2018-04-27 10:00,11.2,128.0,23.4,41.9,,
2018-04-27 11:00,11.7,1246.0,32.7,68.7,,
2018-04-27 12:00,9.2,1029.0,23.4,48.3,,
2018-04-27 13:00,10.3,833.0,17.8,30.2,,
2018-04-27 14:00,11.2,80.0,28.9,55.0,,
2018-04-27 15:00,16.9,1243.0,41.0,86.3,,
2018-04-27 16:00,16.7,1139.0,35.9,71.7,,
2018-04-27 17:00,20.9,1308.0,44.4,80.5,,
2018-04-27 18:00,21.0,1610.0,43.5,87.0,,
2018-04-27 19:00,16.7,1452.0,39.2,75.4,,
2018-04-27 20:00,16.2,1263.0,42.0,87.8,,
2018-04-27 21:00,22.2,1464.0,82.0,161.7,,
2018-04-27 22:00,23.0,1612.0,47.0,92.3,,
2018-04-27 23:00,2.0,109.0,42.6,84.2,,
2018-04-28 00:00,23.4,1021.0,23.0,62.8,,
2018-04-28 01:00,24.6,1156.0,44.2,83.7,,
2018-04-28 02:00,21.3,925.0,35.8,70.0,,
2018-04-28 03:00,23.9,767.0,24.0,52.8,,
2018-04-28 04:00,19.4,687.0,20.1,45.2,,
2018-04-28 05:00,18.5,828.0,31.4,65.1,,
2018-04-28 06:00,18.4,875.0,27.5,52.5,,
2018-04-28 07:00,15.1,940.0,27.8,51.8,,
2018-04-28 08:00,24.0,1600.0,75.5,142.1,,
2018-04-28 09:00,12.5,1274.0,31.8,62.2,,
2018-04-28 10:00,16.6,1242.0,33.0,60.2,,
2018-04-28 11:00,19.8,1371.0,47.7,92.5,,
2018-04-28 12:00,17.0,1296.0,29.1,57.4,,
2018-04-28 13:00,15.3,1039.0,21.9,36.7,,
2018-04-28 14:00,20.2,1004.0,38.9,73.7,,
2018-04-28 15:00,20.6,1160.0,27.3,55.8,,
2018-04-28 16:00,30.8,988.0,15.0,33.5,,
2018-04-28 17:00,13.3,963.0,35.2,70.2,,
2018-04-28 18:00,22.8,1433.0,29.2,55.3,,
2018-04-28 19:00,26.9,157.0,31.0,61.5,,
2018-04-28 20:00,32.0,220.0,47.5,90.0,,
2018-04-28 21:00,33.5,1536.0,42.3,85.3,,
2018-04-28 22:00,33.4,1471.0,45.9,90.0,,
2018-04-28 23:00,31.2,1367.0,23.4,48.8,,
2018-04-29 00:00,28.1,1064.0,56.6,121.9,,
2018-04-29 01:00,13.5,820.0,52.6,112.1,,
2018-04-29 02:00,16.0,803.0,38.1,79.5,,
2018-04-29 03:00,10.2,674.0,39.8,73.3,,
2018-04-29 04:00,8.3,540.0,31.4,58.7,,
2018-04-29 05:00,6.7,605.0,27.0,64.3,,
2018-04-29 06:00,8.4,579.0,28.9,58.8,,
2018-04-29 07:00,9.1,586.0,22.7,46.0,,
2018-04-29 08:00,22.1,1063.0,19.0,43.2,,
2018-04-29 09:00,37.4,1608.0,29.3,57.3,,
2018-04-29 10:00,33.6,1088.0,34.4,65.4,,
2018-04-29 11:00,39.2,116.0,39.6,80.9,,
2018-04-29 12:00,38.5,1208.0,57.6,109.0,,
2018-04-29 13:00,24.4,608.0,42.8,79.0,,
2018-04-29 14:00,16.0,699.0,29.4,56.0,,
2018-04-29 15:00,37.6,555.0,21.0,40.4,,
2018-04-29 16:00,37.2,877.0,37.2,72.7,,
2018-04-29 17:00,41.0,754.0,26.4,55.0,,
2018-04-29 18:00,40.6,739.0,31.5,65.9,,
2018-04-29 19:00,44.0,1191.0,71.0,143.2,,
2018-04-29 20:00,21.9,856.0,30.1,65.8,,
2018-04-29 21:00,11.8,486.0,37.0,78.9,,
2018-04-29 22:00,29.0,677.0,42.0,81.7,,
2018-04-29 23:00,30.5,709.0,59.1,104.5,,
2018-04-30 00:00,29.7,1553.0,24.1,48.1,,
2018-04-30 01:00,29.1,1472.0,22.1,41.1,,
2018-04-30 02:00,34.9,1411.0,24.1,57.8,,
2018-04-30 03:00,3.0,1206.0,33.6,65.0,,
2018-04-30 04:00,23.7,1362.0,48.6,92.9,,
2018-04-30 05:00,27.4,1290.0,77.2,140.9,,
2018-04-30 06:00,28.5,1270.0,44.6,89.5,,
2018-04-30 07:00,28.0,1428.0,25.2,51.3,,
2018-04-30 08:00,23.5,1448.0,38.0,7.0,,
2018-04-30 09:00,31.6,1668.0,51.7,108.3,,
2018-04-30 10:00,31.2,1604.0,43.6,82.3,,
2018-04-30 11:00,27.9,1702.0,44.5,87.0,,
2018-04-30 12:00,30.0,1678.0,39.0,78.6,,
2018-04-30 13:00,28.7,1478.0,28.7,61.2,,
2018-04-30 14:00,25.1,1278.0,29.3,57.1,,
2018-04-30 15:00,6.8,382.0,15.2,30.2,,
2018-04-30 16:00,16.5,440.0,22.0,43.6,,
2018-04-30 17:00,12.6,441.0,26.0,52.3,,
2018-04-30 18:00,8.8,540.0,18.6,35.0,,
2018-04-30 19:00,7.81,508.0,19.9,37.2,,
2018-04-30 20:00,10.8,568.0,25.1,56.3,,
2018-04-30 21:00,6.6,381.0,19.0,45.4,,
2018-04-30 22:00,6.8,437.0,32.1,68.0,,
2018-04-30 23:00,6.2,488.0,27.0,55.5,,
2018-05-01 00:00,3.4,324.0,26.2,50.8,,
2018-05-01 01:00,2.9,378.0,19.0,43.0,,
2018-05-01 02:00,2.1,43.0,17.0,34.0,,
2018-05-01 03:00,4.0,378.0,16.3,33.7,,
2018-05-01 04:00,,279.0,23.3,45.6,,
2018-05-01 05:00,6.9,358.0,31.3,65.6,,
2018-05-01 06:00,7.2,341.0,36.5,71.2,,
2018-05-01 07:00,12.0,387.0,47.1,92.9,,
2018-05-01 08:00,12.5,406.0,20.3,44.6,,
2018-05-01 09:00,14.9,681.0,33.3,60.9,,
2018-05-01 10:00,15.0,436.0,41.5,78.3,,
2018-05-01 11:00,14.7,339.0,30.4,67.3,,
2018-05-01 12:00,20.7,45.0,19.3,38.0,,
2018-05-01 13:00,10.6,439.0,19.9,38.9,,
2018-05-01 14:00,4.2,359.0,16.2,42.5,,
2018-05-01 15:00,6.7,504.0,29.3,57.3,,
2018-05-01 16:00,5.939999999999999,549.0,34.7,61.2,,
2018-05-01 17:00,6.4,532.0,44.4,88.5,,
2018-05-01 18:00,5.939999999999999,492.0,42.6,83.9,,
2018-05-01 19:00,6.8,484.0,42.0,85.0,,
2018-05-01 20:00,6.689999999999999,57.0,39.3,77.6,,
2018-05-01 21:00,7.5,504.0,29.9,56.5,,
2018-05-01 22:00,7.4,50.0,41.8,87.1,,
2018-05-01 23:00,6.9,531.0,27.9,59.5,,
2018-05-02 00:00,4.6,369.0,45.0,86.3,,
2018-05-02 01:00,3.6,304.0,22.1,46.2,,
2018-05-02 02:00,9.0,472.0,21.4,41.6,,
2018-05-02 03:00,13.3,410.0,19.5,36.7,,
2018-05-02 04:00,16.8,299.0,15.6,31.0,,
2018-05-02 05:00,17.6,342.0,22.5,43.0,,
2018-05-02 06:00,18.0,624.0,31.8,67.8,,
2018-05-02 07:00,15.9,702.0,39.2,76.4,,
2018-05-02 08:00,19.4,1409.0,52.0,110.9,,
2018-05-02 09:00,14.7,1024.0,27.3,59.3,,
2018-05-02 10:00,12.9,900.0,22.6,44.6,,
2018-05-02 11:00,10.3,666.0,29.0,62.1,,
2018-05-02 12:00,9.4,640.0,29.0,58.0,,
2018-05-02 13:00,5.6,498.0,26.8,59.0,,
2018-05-02 14:00,6.91,506.6,20.65,43.61,,
2018-04-26 00:00,20.9,1166.0,18.2,34.2,,
2018-04-26 01:00,20.0,900.0,37.5,70.6,,
2018-04-26 02:00,14.8,770.0,26.1,51.0,,
2018-04-26 03:00,12.4,603.0,35.9,70.8,,
2018-04-26 04:00,13.6,754.0,19.1,36.8,,
2018-04-26 05:00,12.2,653.0,32.3,59.6,,
2018-04-26 06:00,9.8,683.0,24.5,48.3,,
2018-04-26 07:00,14.0,1059.0,39.7,82.0,,
2018-04-26 08:00,23.9,1990.0,47.8,97.9,,
2018-04-26 09:00,45.3,242.0,56.3,122.0,,
2018-04-26 10:00,37.0,1398.0,27.6,59.3,,
2018-04-26 11:00,30.5,1030.0,28.8,51.6,,
2018-04-26 12:00,34.4,1187.0,48.0,94.2,,
2018-04-26 13:00,23.4,1110.0,34.6,60.1,,
2018-04-26 14:00,13.0,85.0,25.8,47.4,,
2018-04-26 15:00,13.3,1007.0,28.6,55.0,,
2018-04-26 16:00,13.5,975.0,22.4,40.7,,
2018-04-26 17:00,28.0,170.0,31.5,61.8,,
2018-04-26 18:00,21.0,1752.0,27.5,57.1,,
2018-04-26 19:00,12.9,1090.0,36.5,66.0,,
2018-04-26 20:00,11.7,878.0,29.9,57.4,,
2018-04-26 21:00,11.7,824.0,27.2,55.0,,
2018-04-26 22:00,13.6,845.0,21.9,47.6,,
2018-04-26 23:00,10.0,782.0,20.6,48.0,,
2018-05-01 14:00,4.27,359.9,16.21,42.55,,
2018-04-21 00:00,9.5,247.0,18.1,37.0,,
2018-04-21 01:00,7.6,424.0,21.1,43.0,,
2018-04-21 02:00,8.1,414.0,15.2,29.1,,
2018-04-21 03:00,8.8,399.0,17.4,31.7,,
2018-04-21 04:00,6.4,387.0,16.9,31.9,,
2018-04-21 05:00,7.2,436.0,22.1,43.3,,
2018-04-21 06:00,6.689999999999999,486.0,25.8,48.8,,
2018-04-21 07:00,9.7,725.0,37.8,73.3,,
2018-04-21 08:00,11.4,1036.0,47.2,89.3,,
2018-04-21 09:00,16.2,1263.0,78.5,164.7,,
2018-04-21 10:00,20.0,104.0,31.2,59.2,,
2018-04-21 11:00,17.0,671.0,24.1,47.2,,
2018-04-21 12:00,14.4,849.0,29.5,55.1,,
2018-04-21 13:00,9.0,69.0,25.2,48.6,,
2018-04-21 14:00,7.3,480.0,19.8,40.2,,
2018-04-21 15:00,6.4,423.0,41.0,83.7,,
2018-04-21 16:00,5.9,495.0,15.8,28.4,,
2018-04-21 17:00,8.5,667.0,16.2,29.8,,
2018-04-21 18:00,7.7,574.0,18.5,33.7,,
2018-04-21 19:00,9.3,696.0,15.2,27.3,,
2018-04-21 20:00,8.1,697.0,21.6,39.8,,
2018-04-21 21:00,6.2,434.0,26.9,51.7,,
2018-04-21 22:00,,323.0,16.2,35.4,,
2018-04-21 23:00,8.8,475.0,14.5,24.4,,
2018-04-22 00:00,8.8,367.0,14.9,27.6,,
2018-04-22 01:00,6.9,14.0,17.2,29.7,,
2018-04-22 02:00,5.3,228.0,15.6,28.3,,
2018-04-22 03:00,4.1,259.0,17.9,32.4,,
2018-04-22 04:00,4.4,254.0,16.2,34.5,,
2018-04-22 05:00,4.9,100.0,10.6,21.7,,
2018-04-22 06:00,7.5,376.0,22.7,42.0,,
2018-04-22 07:00,7.8,641.0,32.5,64.6,,
2018-04-22 08:00,8.9,618.0,24.7,58.1,,
2018-04-22 09:00,8.0,582.0,25.1,48.4,,
2018-04-22 10:00,9.7,654.0,28.1,51.8,,
2018-04-22 11:00,9.9,485.0,18.7,33.5,,
2018-04-22 12:00,10.1,483.0,22.5,47.1,,
2018-04-22 13:00,7.8,563.0,21.6,38.0,,
2018-04-22 14:00,8.5,496.0,44.7,85.8,,
2018-04-22 15:00,8.1,490.0,44.4,83.0,,
2018-04-22 16:00,7.4,624.0,48.3,90.8,,
2018-04-22 17:00,7.7,656.0,35.0,6.0,,
2018-04-22 18:00,8.0,690.0,30.0,53.6,,
2018-04-22 19:00,6.0,644.0,24.5,42.8,,
2018-04-22 20:00,6.9,692.0,31.1,52.6,,
2018-04-22 21:00,5.939999999999999,559.0,30.0,60.5,,
2018-04-22 22:00,6.4,51.0,23.8,41.9,,
2018-04-22 23:00,6.7,545.0,25.4,46.8,,
2018-04-23 00:00,6.8,535.0,37.1,69.7,,
2018-04-23 01:00,8.8,211.0,31.4,54.5,,
2018-04-23 02:00,6.1,16.0,24.8,43.1,,
2018-04-23 03:00,4.3,27.0,32.7,61.6,,
2018-04-23 04:00,6.2,190.0,28.3,53.2,,
2018-04-23 05:00,4.9,171.0,24.8,48.7,,
2018-04-23 06:00,7.0,386.0,37.5,67.0,,
2018-04-23 07:00,11.7,790.0,27.1,48.6,,
2018-04-23 08:00,10.7,1054.0,38.3,70.5,,
2018-04-23 09:00,14.5,134.0,31.2,59.3,,
2018-04-23 10:00,17.9,1358.0,25.7,48.1,,
2018-04-23 11:00,13.3,903.0,21.4,44.3,,
2018-04-23 12:00,13.0,861.0,22.5,47.4,,
2018-04-23 13:00,10.0,733.0,26.8,46.6,,
2018-04-23 14:00,8.0,74.0,31.1,60.1,,
2018-04-23 15:00,10.0,702.0,28.6,55.7,,
2018-04-23 16:00,12.3,800.0,36.4,74.6,,
2018-04-23 17:00,16.8,1031.0,45.1,87.5,,
2018-04-23 18:00,13.8,1231.0,55.8,109.9,,
2018-04-23 19:00,11.0,846.0,41.2,78.0,,
2018-04-23 20:00,9.9,862.0,29.7,65.8,,
2018-04-23 21:00,7.8,656.0,28.5,54.2,,
2018-04-23 22:00,13.0,515.0,30.8,45.5,,
2018-04-23 23:00,10.5,566.0,21.2,42.7,,
2018-04-24 00:00,8.8,565.0,19.8,40.3,,
2018-04-24 01:00,7.2,254.0,24.6,43.7,,
2018-04-24 02:00,12.7,28.0,27.4,52.2,,
2018-04-24 03:00,7.9,271.0,33.6,70.2,,
2018-04-24 04:00,5.4,297.0,34.1,67.9,,
2018-04-24 05:00,10.7,22.0,26.9,51.9,,
2018-04-24 06:00,16.0,491.0,21.6,43.8,,
2018-04-24 07:00,18.5,765.0,33.8,68.1,,
2018-04-24 08:00,17.4,1213.0,42.1,83.2,,
2018-04-24 09:00,18.4,987.0,48.7,96.7,,
2018-04-24 10:00,19.4,773.0,27.6,52.9,,
2018-04-24 11:00,21.9,886.0,31.1,59.0,,
2018-04-24 12:00,17.5,719.0,22.5,45.1,,
2018-04-24 13:00,9.8,642.0,18.4,32.1,,
2018-04-24 14:00,7.0,707.0,21.4,39.3,,
2018-04-24 15:00,10.8,60.0,34.2,70.0,,
2018-04-24 16:00,14.2,84.0,33.0,67.8,,
2018-04-24 17:00,15.4,1083.0,65.9,116.1,,
2018-04-24 18:00,24.8,1924.0,42.9,88.8,,
2018-04-24 19:00,27.0,1600.0,41.8,80.2,,
2018-04-24 20:00,26.3,1591.0,41.0,78.9,,
2018-04-24 21:00,24.0,1086.0,37.0,83.6,,
2018-04-24 22:00,23.0,1120.0,21.2,47.7,,
2018-04-24 23:00,18.2,881.0,16.5,30.1,,
2018-04-25 00:00,14.1,794.0,32.1,65.9,,
2018-04-25 01:00,11.5,689.0,35.2,68.8,,
2018-04-25 02:00,11.4,608.0,18.2,40.1,,
2018-04-25 03:00,12.2,282.0,45.2,87.9,,
2018-04-25 04:00,13.8,429.0,18.1,39.3,,
2018-04-25 05:00,6.5,40.0,27.4,51.0,,
2018-04-25 06:00,5.3,366.0,31.6,59.2,,
2018-04-25 07:00,7.7,729.0,19.0,35.7,,
2018-04-25 08:00,11.9,954.0,20.1,40.5,,
2018-04-25 09:00,18.4,987.0,28.7,66.7,,
2018-04-25 10:00,19.4,773.0,27.6,52.9,,
2018-04-25 11:00,21.9,886.0,31.1,59.0,,
2018-04-25 12:00,17.5,719.0,22.5,45.1,,
2018-04-25 13:00,9.8,642.0,18.4,32.1,,
2018-04-25 14:00,7.0,707.0,21.4,39.3,,
2018-04-25 15:00,13.4,101.0,34.0,67.6,,
2018-04-25 16:00,12.5,943.0,41.6,86.4,,
2018-04-25 17:00,15.9,962.0,22.0,47.9,,
2018-04-25 18:00,16.4,1156.0,29.2,57.5,,
2018-04-25 19:00,15.8,1189.0,22.4,43.6,,
2018-04-25 20:00,14.1,1196.0,43.0,86.3,,
2018-04-25 21:00,18.1,1514.0,31.3,65.9,,
2018-04-25 22:00,20.0,143.0,27.2,54.4,,
2018-04-25 23:00,24.7,1292.0,25.2,48.0,,
2018-04-26 08:00,23.97,1990.3,47.88,97.92,,
2018-04-25 14:00,7.6,707.3,21.46,39.32,,
2018-04-19 00:00,24.8,148.0,50.4,90.6,,
2018-04-19 01:00,23.9,1489.0,26.0,52.2,,
2018-04-19 02:00,20.9,161.0,59.3,107.2,,
2018-04-19 03:00,24.0,1494.0,44.3,97.3,,
2018-04-19 08:00,30.2,2386.0,51.3,96.6,,
2018-04-19 09:00,33.2,2241.0,58.9,109.3,,
2018-04-19 10:00,31.7,1815.0,41.6,89.8,,
2018-04-19 11:00,28.6,1673.0,29.8,52.0,,
2018-04-19 17:00,26.3,835.0,38.5,71.4,,
2018-04-19 18:00,31.8,727.0,26.1,51.7,,
2018-04-19 19:00,23.0,659.0,22.7,46.8,,
2018-04-19 20:00,15.9,349.0,19.1,48.1,,
2018-04-19 21:00,16.9,160.0,60.0,128.3,,
2018-04-20 00:00,12.9,10.0,23.9,48.4,,
2018-04-20 01:00,11.9,684.0,27.1,52.2,,
2018-04-20 02:00,11.9,672.0,26.7,51.7,,
2018-04-20 03:00,8.6,817.0,47.5,92.0,,
2018-04-20 04:00,8.4,658.0,18.4,34.7,,
2018-04-20 05:00,12.9,595.0,26.9,5.0,,
2018-04-20 06:00,23.2,1086.0,21.5,42.8,,
2018-04-20 07:00,31.4,1171.0,24.9,45.1,,
2018-04-20 08:00,26.7,1563.0,19.1,62.6,,
2018-04-20 09:00,2.0,130.0,48.4,84.3,,
2018-04-20 10:00,16.3,1085.0,42.9,84.8,,
2018-04-20 11:00,13.9,73.0,34.8,61.4,,
2018-04-20 12:00,18.0,715.0,16.5,30.4,,
2018-04-20 13:00,18.9,715.0,17.0,38.7,,
2018-04-20 14:00,17.0,764.0,17.6,35.1,,
2018-04-20 15:00,22.0,692.0,37.3,68.2,,
2018-04-20 16:00,2.0,78.0,33.0,59.0,,
2018-04-20 17:00,13.9,947.0,37.7,79.0,,
2018-04-20 18:00,14.6,821.0,24.1,48.1,,
2018-04-20 19:00,13.2,680.0,31.2,66.5,,
2018-04-20 20:00,12.7,617.0,29.7,62.3,,
2018-04-20 21:00,12.4,453.0,27.1,56.0,,
2018-04-20 22:00,15.2,428.0,24.1,47.9,,
2018-04-20 23:00,15.0,466.0,19.8,40.2,,
2018-04-23 14:00,8.4,748.0,31.11,60.14,,
2018-04-09 15:00,20.3,1540.0,47.2,92.0,,
2018-04-09 16:00,33.2,1573.0,38.3,77.8,,
2018-04-09 17:00,33.0,1791.0,3.0,108.2,,
2018-04-09 18:00,30.7,2241.0,47.2,103.4,,
2018-04-09 19:00,30.5,2578.0,35.6,67.0,,
2018-04-09 20:00,32.6,2161.0,38.0,83.8,,
2018-04-09 21:00,25.7,1910.0,27.5,58.5,,
2018-04-09 22:00,23.9,1755.0,29.0,57.0,,
2018-04-09 23:00,28.7,1564.0,20.9,39.7,,
2018-04-10 00:00,24.8,148.0,50.4,90.6,,
2018-04-10 01:00,23.9,1489.0,26.0,52.2,,
2018-04-10 02:00,20.9,161.0,59.3,107.2,,
2018-04-10 03:00,24.0,1494.0,44.3,97.3,,
2018-04-10 08:00,30.2,2386.0,51.3,96.6,,
2018-04-10 09:00,33.2,2241.0,58.9,109.3,,
2018-04-10 10:00,31.7,1815.0,41.6,89.8,,
2018-04-10 11:00,28.6,1673.0,29.8,52.0,,
2018-04-10 15:00,35.7,1491.0,30.1,57.7,,
2018-04-10 16:00,35.0,1526.0,25.8,52.9,,
2018-04-10 17:00,28.0,1658.0,39.9,73.0,,
2018-04-10 18:00,31.1,2031.0,45.6,91.9,,
2018-04-10 19:00,21.1,1895.0,39.7,76.9,,
2018-04-10 20:00,20.9,1788.0,28.3,59.1,,
2018-04-10 21:00,16.9,174.0,30.1,61.0,,
2018-04-10 22:00,15.1,1699.0,26.7,55.8,,
2018-04-10 23:00,18.3,1500.0,20.7,38.7,,
2018-04-11 00:00,14.9,1477.0,28.6,57.2,,
2018-04-11 01:00,15.9,140.0,30.3,67.7,,
2018-04-11 02:00,14.3,1204.0,27.7,50.7,,
2018-04-11 03:00,15.6,129.0,23.2,4.0,,
2018-04-11 04:00,15.9,1340.0,32.2,61.0,,
2018-04-11 05:00,15.3,1338.0,28.3,54.9,,
2018-04-11 06:00,15.0,1372.0,37.3,72.0,,
2018-04-11 07:00,12.7,2010.0,42.4,82.0,,
2018-04-11 08:00,11.7,212.0,21.6,112.3,,
2018-04-11 09:00,17.6,233.0,58.0,117.7,,
2018-04-11 10:00,20.5,2108.0,48.2,97.0,,
2018-04-11 12:00,17.5,2204.0,47.9,94.8,,
2018-04-11 13:00,21.3,1856.0,42.8,79.1,,
2018-04-11 15:00,22.6,1975.0,31.2,67.9,,
2018-04-11 16:00,17.4,2151.0,36.3,65.0,,
2018-04-11 17:00,19.5,2271.0,52.3,115.0,,
2018-04-11 18:00,18.0,2471.0,52.1,104.1,,
2018-04-11 19:00,14.9,2200.0,74.9,147.0,,
2018-04-11 20:00,10.4,1903.0,39.2,80.6,,
2018-04-11 21:00,11.0,1917.0,36.8,77.0,,
2018-04-11 22:00,8.0,1913.0,28.3,51.2,,
2018-04-11 23:00,6.4,1734.0,19.6,43.8,,
2018-04-12 00:00,7.4,1636.0,32.5,65.8,,
2018-04-12 01:00,12.0,1449.0,24.7,51.4,,
2018-04-12 02:00,3.4,1246.0,22.9,41.6,,
2018-04-12 03:00,6.2,1221.0,26.0,52.3,,
2018-04-12 04:00,13.5,139.0,41.0,78.0,,
2018-04-12 05:00,7.2,1407.0,50.6,104.6,,
2018-04-12 06:00,2.3,1321.0,36.5,78.0,,
2018-04-12 07:00,3.0,1559.0,39.6,83.0,,
2018-04-12 08:00,7.5,2130.0,42.4,97.4,,
2018-04-12 09:00,7.5,2250.0,44.0,108.9,,
2018-04-12 10:00,8.2,2008.0,38.3,77.0,,
2018-04-12 11:00,7.0,1998.0,34.5,64.1,,
2018-04-12 12:00,9.0,1973.0,27.1,54.0,,
2018-04-12 13:00,4.4,1946.0,51.8,107.3,,
2018-04-12 14:00,7.72,1916.6,68.86,130.73,,
2018-04-07 00:00,39.0,1409.0,24.2,55.6,,
2018-04-07 01:00,43.8,1328.0,26.8,58.1,,
2018-04-07 02:00,36.7,1272.0,22.7,41.3,,
2018-04-07 03:00,30.5,1563.0,23.5,48.8,,
2018-04-07 04:00,34.5,1599.0,34.9,66.1,,
2018-04-07 05:00,44.7,1460.0,32.4,59.2,,
2018-04-07 06:00,36.0,1449.0,28.9,54.5,,
2018-04-07 07:00,37.0,1584.0,35.6,76.1,,
2018-04-07 08:00,45.3,1984.0,42.2,85.6,,
2018-04-07 09:00,39.3,1884.0,38.0,77.5,,
2018-04-07 10:00,35.5,167.0,29.6,61.0,,
2018-04-07 11:00,32.8,1423.0,39.2,78.9,,
2018-04-07 12:00,41.4,1542.0,24.1,48.5,,
2018-04-07 13:00,37.0,1638.0,30.2,61.6,,
2018-04-07 14:00,49.5,1857.0,33.5,72.5,,
2018-04-08 10:00,29.0,1715.0,38.5,83.8,,
2018-04-08 11:00,25.2,1390.0,28.7,55.0,,
2018-04-08 12:00,22.3,1316.0,17.1,35.0,,
2018-04-08 13:00,16.6,1143.0,39.7,82.6,,
2018-04-08 14:00,21.9,1268.0,38.6,82.0,,
2018-04-11 13:00,21.3,1856.3,42.8,79.1,,
2018-03-31 00:00,19.4,1848.0,16.5,37.6,,
2018-03-31 01:00,15.1,142.0,26.3,51.6,,
2018-03-31 02:00,15.7,1368.0,68.4,40.0,,
2018-03-31 03:00,13.8,1296.0,42.9,108.9,,
2018-03-31 04:00,11.0,133.0,51.0,97.0,,
2018-03-31 05:00,12.6,1247.0,38.4,77.6,,
2018-03-31 06:00,13.8,1242.0,40.4,81.5,,
2018-03-31 07:00,13.3,1422.0,79.9,156.9,,
2018-03-31 08:00,13.9,1587.0,89.0,174.6,,
2018-03-31 09:00,17.8,1482.0,26.3,50.4,,
2018-03-31 10:00,21.9,1511.0,38.0,79.7,,
2018-03-31 11:00,26.7,1541.0,44.5,83.8,,
2018-03-31 12:00,26.0,1489.0,30.9,65.4,,
2018-03-31 13:00,27.6,1407.0,29.0,56.0,,
2018-03-31 14:00,31.7,1481.0,33.4,61.3,,
2018-03-31 15:00,23.5,1531.0,66.7,121.8,,
2018-03-31 16:00,26.6,1563.0,67.3,135.0,,
2018-03-31 17:00,27.3,1652.0,71.8,140.2,,
2018-03-31 18:00,25.2,1810.0,96.0,188.3,,
2018-03-31 19:00,24.7,1678.0,65.5,134.5,,
2018-03-31 20:00,24.2,1670.0,31.0,65.4,,
2018-03-31 21:00,19.8,1642.0,32.0,68.3,,
2018-03-31 22:00,16.8,157.0,30.1,58.0,,
2018-03-31 23:00,19.5,146.0,22.6,44.9,,
2018-04-01 00:00,18.1,151.0,25.8,54.7,,
2018-04-01 01:00,19.2,1352.0,28.0,52.1,,
2018-04-01 02:00,16.6,1275.0,21.1,44.7,,
2018-04-01 03:00,18.5,1140.0,18.0,44.7,,
2018-04-01 04:00,17.2,1177.0,23.0,47.1,,
2018-04-01 05:00,14.9,1232.0,26.7,51.1,,
2018-04-01 06:00,14.5,1192.0,17.2,32.7,,
2018-04-01 07:00,15.0,1425.0,28.1,52.9,,
2018-04-01 08:00,18.7,1487.0,32.2,61.3,,
2018-04-01 09:00,21.0,1615.0,37.1,72.7,,
2018-04-01 10:00,20.7,1518.0,26.2,48.5,,
2018-04-01 11:00,24.7,1575.0,38.8,74.2,,
2018-04-01 12:00,23.7,1430.0,26.2,5.0,,
2018-04-01 13:00,25.3,1271.0,37.0,73.6,,
2018-04-01 14:00,32.6,1248.0,39.5,77.0,,
2018-04-01 15:00,23.5,1531.0,64.5,117.0,,
2018-04-01 16:00,26.6,1563.0,65.1,130.2,,
2018-04-01 17:00,27.3,1652.0,69.6,135.4,,
2018-04-01 18:00,25.2,1810.0,93.8,183.5,,
2018-04-01 19:00,24.7,1678.0,63.3,129.7,,
2018-04-01 20:00,24.2,1670.0,29.0,60.6,,
2018-04-01 21:00,19.8,1642.0,30.0,63.5,,
2018-04-01 22:00,16.8,157.0,27.9,53.0,,
2018-04-01 23:00,19.5,146.0,20.4,40.1,,
2018-04-02 00:00,18.1,151.0,23.6,49.9,,
2018-04-02 01:00,19.2,1352.0,25.8,47.3,,
2018-04-02 02:00,16.6,1275.0,18.9,39.9,,
2018-04-02 03:00,18.5,1140.0,16.0,39.9,,
2018-04-02 04:00,17.2,1177.0,21.0,42.3,,
2018-04-02 05:00,14.9,1232.0,24.5,46.3,,
2018-04-02 06:00,14.5,1192.0,15.0,27.9,,
2018-04-02 07:00,15.0,1425.0,25.9,48.1,,
2018-04-02 08:00,18.7,1487.0,30.0,56.5,,
2018-04-02 09:00,21.0,1615.0,34.9,67.9,,
2018-04-02 10:00,20.7,1518.0,24.0,43.7,,
2018-04-02 11:00,24.7,1575.0,36.6,69.4,,
2018-04-02 12:00,23.7,1430.0,24.0,45.0,,
2018-04-02 13:00,25.3,1271.0,34.8,68.8,,
2018-04-02 14:00,32.6,1248.0,37.3,72.2,,
2018-04-02 15:00,35.6,1396.0,34.1,60.0,,
2018-04-02 16:00,33.8,1384.0,17.5,32.2,,
2018-04-02 17:00,32.0,1482.0,31.1,65.9,,
2018-04-02 18:00,28.1,1808.0,35.8,71.0,,
2018-04-02 19:00,15.9,1785.0,26.8,54.0,,
2018-04-02 20:00,17.0,1517.0,22.8,41.1,,
2018-04-02 21:00,18.0,1408.0,25.8,54.8,,
2018-04-02 22:00,19.0,150.0,28.3,47.0,,
2018-04-02 23:00,22.0,1479.0,36.5,59.7,,
2018-04-03 00:00,21.6,1422.0,19.0,43.4,,
2018-04-03 01:00,21.1,1603.0,42.4,102.3,,
2018-04-03 02:00,15.5,1441.0,50.7,125.2,,
2018-04-03 03:00,13.6,1349.0,71.2,148.1,,
2018-04-03 04:00,14.6,1300.0,28.9,61.2,,
2018-04-03 05:00,13.1,1325.0,67.8,142.9,,
2018-04-03 06:00,12.3,1344.0,77.5,136.7,,
2018-04-03 07:00,13.5,1416.0,57.5,128.3,,
2018-04-03 08:00,13.4,1845.0,41.9,88.1,,
2018-04-03 09:00,13.4,1782.0,32.5,62.1,,
2018-04-03 10:00,18.0,1504.0,37.8,70.0,,
2018-04-03 11:00,17.2,1402.0,21.6,47.6,,
2018-04-03 12:00,22.7,1483.0,16.6,37.4,,
2018-04-03 13:00,22.9,1255.0,26.0,51.2,,
2018-04-03 14:00,26.0,1251.0,22.4,43.8,,
2018-04-03 15:00,22.9,1339.0,34.4,57.5,,
2018-04-03 16:00,20.0,1407.0,35.1,70.3,,
2018-04-03 17:00,19.6,135.0,42.4,80.8,,
2018-04-03 18:00,20.5,156.0,32.3,67.0,,
2018-04-03 19:00,16.0,1626.0,29.9,55.5,,
2018-04-03 20:00,18.5,1496.0,36.0,70.6,,
2018-04-03 21:00,18.1,1363.0,27.7,54.7,,
2018-04-03 22:00,14.0,1427.0,31.3,59.3,,
2018-04-03 23:00,13.2,1468.0,31.0,65.3,,
2018-04-04 00:00,15.8,1458.0,26.3,55.0,,
2018-04-04 01:00,14.0,1357.0,35.1,62.2,,
2018-04-04 02:00,10.9,1358.0,22.7,45.1,,
2018-04-04 03:00,12.3,1318.0,30.1,61.0,,
2018-04-04 04:00,15.5,1213.0,34.5,78.6,,
2018-04-04 05:00,9.5,1231.0,41.0,80.3,,
2018-04-04 06:00,10.5,1309.0,48.2,92.7,,
2018-04-04 07:00,13.7,1375.0,27.8,60.9,,
2018-04-04 08:00,16.8,173.0,33.3,79.5,,
2018-04-04 09:00,17.4,1993.0,50.0,106.5,,
2018-04-04 10:00,20.88,1713.1,40.25,85.67,,
