time,NO2,CO,PM2.5,PM10,SO2,O3
2018-08-09 00:00,5.0,494.0,2.0,51.0,,
2018-08-09 01:00,11.0,342.0,24.0,4.0,,
2018-08-09 02:00,9.0,219.0,19.0,38.0,,
2018-08-09 03:00,11.0,243.0,14.0,2.0,,
2018-08-09 04:00,3.0,234.0,11.0,20.0,,
2018-08-09 05:00,11.0,296.0,12.0,26.0,,
2018-08-09 06:00,5.0,496.0,1.0,31.0,,
2018-08-09 07:00,7.0,819.0,30.0,61.0,,
2018-08-09 08:00,5.0,5905.0,36.0,70.0,,
2018-08-09 09:00,17.0,4321.0,3.0,65.0,,
2018-08-09 10:00,3.0,2677.0,27.0,50.0,,
2018-08-09 11:00,15.0,1856.0,27.0,55.0,,
2018-08-09 12:00,5.0,1697.0,25.0,51.0,,
2018-08-09 13:00,38.0,641.0,20.0,38.0,,
2018-08-09 14:00,19.0,1125.0,30.0,60.0,,
2018-08-09 15:00,34.0,1353.0,31.0,61.0,,
2018-08-09 16:00,17.0,1668.0,21.0,42.0,,
2018-08-09 17:00,17.0,3569.0,42.0,82.0,,
2018-08-09 18:00,13.0,1074.0,47.0,97.0,,
2018-08-09 19:00,15.0,1337.0,35.0,7.0,,
2018-08-09 20:00,32.0,2041.0,29.0,64.0,,
2018-08-09 21:00,28.0,2226.0,25.0,51.0,,
2018-08-09 22:00,36.0,3133.0,17.0,39.0,,
2018-08-09 23:00,55.0,2186.0,18.0,40.0,,
2018-08-10 00:00,2.0,912.0,18.0,36.0,,
2018-08-10 01:00,19.0,100.0,33.0,64.0,,
2018-08-10 02:00,11.0,726.0,32.0,63.0,,
2018-08-10 03:00,13.0,595.0,32.0,69.0,,
2018-08-10 04:00,13.0,525.0,4.0,83.0,,
2018-08-10 05:00,5.0,593.0,4.0,103.0,,
2018-08-10 06:00,7.0,771.0,5.0,110.0,,
2018-08-10 07:00,7.0,1410.0,40.0,91.0,,
2018-08-10 08:00,15.0,4438.0,50.0,107.0,,
2018-08-10 09:00,7.0,3388.0,35.0,70.0,,
2018-08-10 10:00,1.0,1942.0,33.0,61.0,,
2018-08-10 11:00,11.0,3258.0,38.0,72.0,,
2018-08-10 12:00,7.0,1825.0,27.0,55.0,,
2018-08-10 13:00,3.0,841.0,24.0,46.0,,
2018-08-10 14:00,3.0,2236.0,38.0,71.0,,
2018-08-10 15:00,11.0,1476.0,32.0,60.0,,
2018-08-10 17:00,36.0,2111.0,41.0,80.0,,
2018-08-10 18:00,38.0,4496.0,45.0,91.0,,
2018-08-10 19:00,28.0,7193.0,50.0,106.0,,
2018-08-10 20:00,47.0,3967.0,35.0,72.0,,
2018-08-10 21:00,28.0,1736.0,49.0,10.0,,
2018-08-10 22:00,17.0,1713.0,24.0,45.0,,
2018-08-10 23:00,2.0,189.0,30.0,57.0,,
2018-08-11 00:00,9.0,2188.0,48.0,95.0,,
2018-08-11 01:00,26.0,1908.0,43.0,85.0,,
2018-08-11 02:00,17.0,871.0,38.0,73.0,,
2018-08-11 03:00,9.0,407.0,36.0,72.0,,
2018-08-11 04:00,3.0,549.0,45.0,90.0,,
2018-08-11 05:00,7.0,623.0,29.0,55.0,,
2018-08-11 06:00,15.0,2126.0,35.0,68.0,,
2018-08-11 07:00,9.0,1602.0,30.0,58.0,,
2018-08-11 08:00,1.0,1650.0,34.0,65.0,,
2018-08-11 09:00,7.0,2855.0,51.0,106.0,,
2018-08-11 10:00,22.0,1951.0,39.0,83.0,,
2018-08-11 11:00,2.0,2240.0,30.0,64.0,,
2018-08-11 12:00,7.0,1797.0,21.0,49.0,,
2018-08-11 13:00,3.0,829.0,25.0,59.0,,
2018-08-11 14:00,1.0,1142.0,29.0,65.0,,
2018-08-11 15:00,17.0,2357.0,41.0,79.0,,
2018-08-11 17:00,11.0,1975.0,35.0,7.0,,
2018-08-11 18:00,15.0,1542.0,39.0,83.0,,
2018-08-11 19:00,7.0,1112.0,20.0,43.0,,
2018-08-11 20:00,15.0,937.0,21.0,37.0,,
2018-08-11 21:00,26.0,1706.0,2.0,54.0,,
2018-08-11 22:00,17.0,590.0,25.0,7.0,,
2018-08-11 23:00,19.0,1702.0,46.0,88.0,,
2018-08-12 00:00,3.0,884.0,27.0,51.0,,
2018-08-12 01:00,9.0,648.0,27.0,52.0,,
2018-08-12 02:00,7.0,477.0,24.0,47.0,,
2018-08-12 03:00,7.0,160.0,13.0,31.0,,
2018-08-12 04:00,3.0,39.0,10.0,2.0,,
2018-08-12 05:00,3.0,62.0,15.0,3.0,,
2018-08-12 06:00,7.0,212.0,12.0,25.0,,
2018-08-12 07:00,5.0,713.0,18.0,41.0,,
2018-08-12 08:00,5.0,1745.0,30.0,59.0,,
2018-08-12 09:00,3.0,1811.0,43.0,81.0,,
2018-08-12 10:00,7.0,1418.0,43.0,49.0,,
2018-08-12 11:00,5.0,1574.0,28.0,53.0,,
2018-08-12 12:00,1.0,1173.0,12.0,3.0,,
2018-08-12 13:00,9.0,83.0,1.0,34.0,,
2018-08-12 14:00,5.0,673.0,30.0,57.0,,
2018-08-12 15:00,3.0,693.0,44.0,85.0,,
2018-08-12 16:00,9.0,1538.0,26.0,57.0,,
2018-08-12 17:00,5.0,2384.0,27.0,38.0,,
2018-08-12 18:00,7.0,470.0,2.0,34.0,,
2018-08-12 19:00,7.0,458.0,28.0,49.0,,
2018-08-12 20:00,19.0,1583.0,3.0,66.0,,
2018-08-12 21:00,5.0,418.0,40.0,76.0,,
2018-08-12 22:00,9.0,711.0,47.0,94.0,,
2018-08-12 23:00,13.0,823.0,30.0,55.0,,
2018-08-13 00:00,9.0,46.0,24.0,48.0,,
2018-08-13 01:00,3.0,234.0,19.0,37.0,,
2018-08-13 02:00,3.0,131.0,16.0,30.0,,
2018-08-13 03:00,7.0,182.0,19.0,39.0,,
2018-08-13 04:00,7.0,98.0,13.0,23.0,,
2018-08-13 05:00,7.0,254.0,13.0,22.0,,
2018-08-13 06:00,5.0,37.0,7.0,16.0,,
2018-08-13 07:00,13.0,1343.0,2.0,42.0,,
2018-08-13 08:00,13.0,664.0,29.0,49.0,,
2018-08-13 09:00,5.0,3003.0,38.0,6.0,,
2018-08-13 10:00,36.0,2764.0,3.0,64.0,,
2018-08-13 11:00,5.0,1813.0,45.0,9.0,,
2018-08-13 12:00,5.0,1932.0,38.0,7.0,,
2018-08-13 13:00,3.0,1058.0,24.0,46.0,,
2018-08-13 14:00,30.6,1609.1,35.0,58.1,,
2018-07-31 00:00,9.0,653.0,29.0,61.0,,
2018-07-31 01:00,9.0,576.0,23.0,50.0,,
2018-07-31 02:00,9.0,277.0,21.0,43.0,,
2018-07-31 03:00,11.0,295.0,24.0,52.0,,
2018-07-31 04:00,5.0,263.0,18.0,36.0,,
2018-07-31 05:00,5.0,274.0,17.0,35.0,,
2018-07-31 06:00,5.0,527.0,12.0,29.0,,
2018-07-31 07:00,11.0,1619.0,26.0,55.0,,
2018-07-31 08:00,17.0,1823.0,34.0,62.0,,
2018-07-31 09:00,19.0,1598.0,43.0,8.0,,
2018-07-31 10:00,26.0,3968.0,37.0,77.0,,
2018-07-31 11:00,43.0,2812.0,50.0,10.0,,
2018-07-31 12:00,30.0,2553.0,43.0,8.0,,
2018-07-31 13:00,11.0,1062.0,28.0,59.0,,
2018-07-31 15:00,11.0,733.0,34.0,64.0,,
2018-07-31 16:00,7.0,869.0,3.0,57.0,,
2018-07-31 17:00,5.0,4189.0,37.0,70.0,,
2018-07-31 18:00,7.0,830.0,46.0,8.0,,
2018-07-31 19:00,15.0,2757.0,44.0,96.0,,
2018-07-31 20:00,17.0,1539.0,27.0,59.0,,
2018-07-31 21:00,13.0,829.0,39.0,82.0,,
2018-07-31 22:00,9.0,531.0,27.0,58.0,,
2018-07-31 23:00,5.0,61.0,42.0,88.0,,
2018-08-01 00:00,5.0,241.0,35.0,75.0,,
2018-08-01 01:00,11.0,84.0,25.0,54.0,,
2018-08-01 02:00,13.0,123.0,17.0,38.0,,
2018-08-01 03:00,11.0,4.0,23.0,50.0,,
2018-08-01 04:00,13.0,11.0,27.0,58.0,,
2018-08-01 05:00,11.0,104.0,26.0,56.0,,
2018-08-01 06:00,17.0,215.0,17.0,38.0,,
2018-08-01 07:00,13.0,849.0,39.0,74.0,,
2018-08-01 08:00,13.0,1639.0,22.0,4.0,,
2018-08-01 09:00,19.0,1457.0,21.0,38.0,,
2018-08-01 10:00,4.0,3149.0,26.0,48.0,,
2018-08-01 11:00,24.0,3143.0,19.0,35.0,,
2018-08-01 12:00,7.0,2285.0,48.0,92.0,,
2018-08-01 13:00,9.0,1845.0,26.0,48.0,,
2018-08-01 14:00,12.0,1525.0,18.0,32.0,,
2018-08-01 15:00,19.0,1487.0,31.0,66.0,,
2018-08-01 16:00,3.0,2020.0,26.0,52.0,,
2018-08-01 17:00,11.0,2600.0,51.0,70.0,,
2018-08-01 18:00,9.0,5613.0,38.0,74.0,,
2018-08-01 19:00,2.0,2011.0,28.0,51.0,,
2018-08-01 20:00,19.0,2063.0,34.0,68.0,,
2018-08-01 21:00,9.0,1044.0,40.0,78.0,,
2018-08-01 22:00,17.0,884.0,46.0,96.0,,
2018-08-01 23:00,15.0,1086.0,30.0,57.0,,
2018-08-02 00:00,11.0,272.0,23.0,50.0,,
2018-08-02 01:00,9.0,570.0,18.0,39.0,,
2018-08-02 02:00,9.0,635.0,15.0,32.0,,
2018-08-02 03:00,13.0,109.0,19.0,41.0,,
2018-08-02 04:00,17.0,175.0,13.0,25.0,,
2018-08-02 05:00,11.0,196.0,12.0,24.0,,
2018-08-02 06:00,19.0,286.0,17.0,38.0,,
2018-08-02 07:00,13.0,743.0,21.0,44.0,,
2018-08-02 08:00,15.0,1771.0,29.0,51.0,,
2018-08-02 09:00,13.0,990.0,37.0,70.0,,
2018-08-02 10:00,17.0,1039.0,32.0,66.0,,
2018-08-02 11:00,26.0,845.0,45.0,95.0,,
2018-08-02 12:00,22.0,1107.0,37.0,72.0,,
2018-08-02 13:00,24.0,916.0,23.0,48.0,,
2018-08-02 14:00,11.0,713.0,34.0,60.0,,
2018-08-02 15:00,11.0,500.0,37.0,74.0,,
2018-08-02 16:00,9.0,529.0,43.0,79.0,,
2018-08-02 17:00,22.0,2003.0,4.0,94.0,,
2018-08-02 18:00,19.0,1342.0,29.0,55.0,,
2018-08-02 19:00,34.0,3167.0,34.0,60.0,,
2018-08-02 20:00,7.0,570.0,29.0,56.0,,
2018-08-02 21:00,15.0,448.0,43.0,89.0,,
2018-08-02 22:00,5.0,423.0,18.0,29.0,,
2018-08-02 23:00,7.0,456.0,24.0,41.0,,
2018-08-03 00:00,9.0,151.0,42.0,79.0,,
2018-08-03 01:00,15.0,4.0,36.0,6.0,,
2018-08-03 02:00,17.0,8.0,31.0,57.0,,
2018-08-03 03:00,15.0,50.0,30.0,56.0,,
2018-08-03 04:00,13.0,2.0,3.0,74.0,,
2018-08-03 05:00,11.0,146.0,23.0,39.0,,
2018-08-03 06:00,11.0,259.0,2.0,52.0,,
2018-08-03 07:00,13.0,773.0,23.0,42.0,,
2018-08-03 08:00,22.0,1341.0,27.0,49.0,,
2018-08-03 09:00,26.0,1265.0,45.0,90.0,,
2018-08-03 10:00,26.0,1261.0,33.0,67.0,,
2018-08-03 11:00,15.0,1157.0,24.0,48.0,,
2018-08-03 12:00,19.0,3033.0,35.0,53.0,,
2018-08-03 13:00,3.0,777.0,38.0,70.0,,
2018-08-03 14:00,7.0,991.0,39.0,69.0,,
2018-08-03 15:00,28.0,723.0,31.0,60.0,,
2018-08-03 16:00,9.0,78.0,58.0,121.0,,
2018-08-03 17:00,22.0,1081.0,45.0,97.0,,
2018-08-03 18:00,13.0,1605.0,44.0,84.0,,
2018-08-03 19:00,4.0,1452.0,47.0,102.0,,
2018-08-03 20:00,9.0,966.0,58.0,121.0,,
2018-08-03 21:00,15.0,463.0,39.0,75.0,,
2018-08-03 22:00,11.0,494.0,27.0,52.0,,
2018-08-03 23:00,2.0,1558.0,22.0,45.0,,
2018-08-04 00:00,17.0,61.0,41.0,85.0,,
2018-08-04 01:00,17.0,153.0,35.0,78.0,,
2018-08-04 02:00,9.0,87.0,32.0,67.0,,
2018-08-04 03:00,11.0,110.0,27.0,56.0,,
2018-08-04 04:00,11.0,14.0,30.0,61.0,,
2018-08-04 05:00,11.0,381.0,22.0,43.0,,
2018-08-04 06:00,7.0,1246.0,21.0,47.0,,
2018-08-04 07:00,15.0,164.0,29.0,61.0,,
2018-08-04 08:00,13.0,4094.0,47.0,102.0,,
2018-08-04 09:00,5.0,3285.0,51.0,111.0,,
2018-08-04 10:00,28.0,5257.0,52.0,107.0,,
2018-08-04 11:00,32.0,286.0,40.0,80.0,,
2018-08-04 12:00,17.0,3059.0,33.0,72.0,,
2018-08-04 13:00,7.0,2268.0,31.0,68.0,,
2018-08-04 14:00,13.4,1764.6,46.1,91.6,,
2018-05-26 15:00,50.0,596.0,29.0,65.0,,
2018-05-26 16:00,56.0,767.0,26.0,58.0,,
2018-05-26 17:00,27.0,693.0,31.0,71.0,,
2018-05-26 18:00,46.0,127.0,41.0,88.0,,
2018-05-26 19:00,33.0,954.0,39.0,97.0,,
2018-05-26 20:00,33.0,889.0,23.0,60.0,,
2018-05-26 21:00,27.0,725.0,34.0,83.0,,
2018-05-26 22:00,25.0,646.0,22.0,59.0,,
2018-05-26 23:00,43.0,568.0,37.0,89.0,,
2018-05-27 00:00,46.0,64.0,31.0,76.0,,
2018-05-27 01:00,42.0,588.0,20.0,55.0,,
2018-05-27 02:00,37.0,545.0,12.0,39.0,,
2018-05-27 03:00,30.0,498.0,18.0,51.0,,
2018-05-27 04:00,22.0,448.0,22.0,59.0,,
2018-05-27 05:00,16.0,477.0,21.0,57.0,,
2018-05-27 06:00,14.0,514.0,12.0,39.0,,
2018-05-27 07:00,22.0,540.0,30.0,67.0,,
2018-05-27 08:00,35.0,951.0,17.0,41.0,,
2018-05-27 09:00,27.0,990.0,16.0,3.0,,
2018-05-27 10:00,39.0,1054.0,21.0,49.0,,
2018-05-27 11:00,29.0,997.0,15.0,36.0,,
2018-05-27 12:00,22.0,72.0,40.0,92.0,,
2018-05-27 13:00,15.0,461.0,21.0,49.0,,
2018-05-27 14:00,15.6,549.8,13.0,33.0,,
2018-05-10 00:00,45.0,280.0,23.0,50.0,,
2018-05-10 01:00,47.0,192.0,18.0,39.0,,
2018-05-10 02:00,6.0,70.0,15.0,32.0,,
2018-05-10 05:00,45.0,42.0,12.0,24.0,,
2018-05-10 06:00,51.0,121.0,17.0,38.0,,
2018-05-10 07:00,68.0,184.0,21.0,44.0,,
2018-05-10 08:00,43.0,72.0,29.0,51.0,,
2018-05-10 09:00,6.0,681.0,37.0,70.0,,
2018-05-10 10:00,6.0,327.0,32.0,66.0,,
2018-05-10 11:00,72.0,355.0,45.0,95.0,,
2018-05-10 12:00,47.0,562.0,37.0,72.0,,
2018-05-10 13:00,64.0,378.0,23.0,48.0,,
2018-05-10 14:00,43.0,430.0,34.0,60.0,,
2018-05-10 15:00,135.0,392.0,34.0,67.0,,
2018-05-10 16:00,61.1,535.8,39.0,72.0,,
2018-04-27 00:00,81.0,1082.0,33.0,6.0,,
2018-04-27 01:00,60.0,653.0,27.0,56.0,,
2018-04-27 02:00,44.0,42.0,29.0,48.0,,
2018-04-27 03:00,56.0,38.0,27.0,54.0,,
2018-04-27 04:00,64.0,310.0,31.0,58.0,,
2018-04-27 05:00,62.0,296.0,28.0,57.0,,
2018-04-27 06:00,44.0,548.0,23.0,48.0,,
2018-04-27 07:00,7.0,688.0,31.0,66.0,,
2018-04-27 08:00,47.0,1525.0,59.0,113.0,,
2018-04-27 09:00,44.0,60.0,42.0,87.0,,
2018-04-27 10:00,32.0,964.0,3.0,61.0,,
2018-04-27 11:00,34.0,1188.0,35.0,68.0,,
2018-04-27 12:00,41.0,992.0,27.0,5.0,,
2018-04-27 13:00,44.0,1043.0,32.0,61.0,,
2018-04-27 14:00,37.0,845.0,24.0,57.0,,
2018-04-27 15:00,53.0,619.0,36.0,71.0,,
2018-04-27 16:00,45.0,650.0,3.0,5.0,,
2018-04-27 17:00,4.0,834.0,41.0,80.0,,
2018-04-27 18:00,43.0,686.0,4.0,91.0,,
2018-04-27 19:00,41.0,587.0,52.0,99.0,,
2018-04-27 20:00,36.0,485.0,58.0,115.0,,
2018-04-27 21:00,28.0,452.0,5.0,10.0,,
2018-04-27 22:00,22.0,37.0,53.0,104.0,,
2018-04-27 23:00,30.0,270.0,43.0,85.0,,
2018-04-28 00:00,22.0,213.0,33.0,68.0,,
2018-04-28 01:00,24.0,141.0,39.0,76.0,,
2018-04-28 02:00,22.0,287.0,36.0,71.0,,
2018-04-28 03:00,22.0,368.0,34.0,67.0,,
2018-04-28 04:00,17.0,348.0,30.0,5.0,,
2018-04-28 05:00,21.0,412.0,2.0,57.0,,
2018-04-28 06:00,2.0,457.0,32.0,61.0,,
2018-04-28 07:00,40.0,462.0,33.0,66.0,,
2018-04-28 08:00,28.0,1001.0,35.0,72.0,,
2018-04-28 09:00,51.0,1284.0,39.0,81.0,,
2018-04-28 10:00,61.0,2596.0,47.0,92.0,,
2018-04-28 11:00,45.0,3553.0,33.0,62.0,,
2018-04-28 12:00,72.0,3517.0,39.0,77.0,,
2018-04-28 13:00,38.0,1552.0,27.0,51.0,,
2018-04-28 14:00,76.0,2985.0,24.0,46.0,,
2018-04-28 15:00,4.0,1028.0,42.0,87.0,,
2018-04-28 16:00,82.0,2902.0,61.0,126.0,,
2018-04-28 17:00,80.0,2739.0,44.0,82.0,,
2018-04-28 18:00,76.0,2158.0,47.0,96.0,,
2018-04-28 19:00,71.0,1946.0,38.0,72.0,,
2018-04-28 20:00,62.0,1847.0,27.0,58.0,,
2018-04-28 21:00,67.0,1245.0,39.0,80.0,,
2018-04-28 22:00,66.0,1120.0,25.0,57.0,,
2018-04-28 23:00,74.0,975.0,22.0,47.0,,
2018-04-29 00:00,57.0,787.0,32.0,76.0,,
2018-04-29 01:00,43.0,605.0,43.0,91.0,,
2018-04-29 02:00,40.0,466.0,38.0,78.0,,
2018-04-29 03:00,30.0,363.0,43.0,92.0,,
2018-04-29 04:00,28.0,289.0,33.0,71.0,,
2018-04-29 05:00,22.0,240.0,48.0,103.0,,
2018-04-29 06:00,4.0,351.0,64.0,133.0,,
2018-04-29 07:00,40.0,691.0,68.0,138.0,,
2018-04-29 08:00,78.0,1102.0,63.0,133.0,,
2018-04-29 09:00,101.0,1076.0,58.0,11.0,,
2018-04-29 10:00,85.0,852.0,52.0,102.0,,
2018-04-29 11:00,91.0,790.0,41.0,84.0,,
2018-04-29 12:00,95.0,962.0,44.0,92.0,,
2018-04-29 13:00,6.0,789.0,41.0,95.0,,
2018-04-29 14:00,57.0,672.0,5.0,107.0,,
2018-04-29 15:00,93.0,687.0,46.0,90.0,,
2018-04-29 16:00,70.0,704.0,55.0,112.0,,
2018-04-29 17:00,89.0,87.0,65.0,138.0,,
2018-04-29 18:00,93.0,948.0,57.0,117.0,,
2018-04-29 19:00,80.0,1559.0,71.0,145.0,,
2018-04-29 20:00,61.0,1197.0,39.0,80.0,,
2018-04-29 21:00,40.0,683.0,36.0,77.0,,
2018-04-29 22:00,72.0,861.0,33.0,62.0,,
2018-04-29 23:00,51.0,648.0,31.0,68.0,,
2018-04-30 00:00,70.0,307.0,44.0,89.0,,
2018-04-30 01:00,59.0,204.0,44.0,89.0,,
2018-04-30 02:00,53.0,162.0,41.0,80.0,,
2018-04-30 03:00,59.0,86.0,34.0,71.0,,
2018-04-30 04:00,70.0,113.0,31.0,64.0,,
2018-04-30 05:00,53.0,252.0,37.0,75.0,,
2018-04-30 06:00,55.0,236.0,33.0,65.0,,
2018-04-30 07:00,91.0,591.0,39.0,81.0,,
2018-04-30 08:00,108.0,4113.0,45.0,90.0,,
2018-04-30 09:00,114.0,4111.0,34.0,67.0,,
2018-04-30 10:00,73.0,1928.0,61.0,12.0,,
2018-04-30 11:00,61.0,1205.0,5.0,110.0,,
2018-04-30 12:00,78.0,1846.0,48.0,91.0,,
2018-04-30 13:00,85.0,1053.0,3.0,74.0,,
2018-04-30 14:00,68.0,1414.0,42.0,81.0,,
2018-04-30 15:00,34.0,855.0,20.0,38.0,,
2018-04-30 16:00,36.0,958.0,1.0,25.0,,
2018-04-30 17:00,32.0,1088.0,25.0,47.0,,
2018-04-30 18:00,46.0,959.0,3.0,58.0,,
2018-04-30 19:00,42.0,1028.0,36.0,6.0,,
2018-04-30 20:00,52.0,93.0,42.0,82.0,,
2018-04-30 21:00,31.0,878.0,3.0,69.0,,
2018-04-30 22:00,27.0,93.0,37.0,71.0,,
2018-04-30 23:00,21.0,61.0,27.0,52.0,,
2018-05-01 00:00,17.0,436.0,17.0,35.0,,
2018-05-01 01:00,15.0,411.0,23.0,43.0,,
2018-05-01 02:00,15.0,36.0,20.0,38.0,,
2018-05-01 03:00,21.0,351.0,18.0,34.0,,
2018-05-01 04:00,1.0,358.0,14.0,25.0,,
2018-05-01 05:00,19.0,318.0,1.0,24.0,,
2018-05-01 06:00,21.0,365.0,16.0,28.0,,
2018-05-01 07:00,19.0,320.0,17.0,33.0,,
2018-05-01 08:00,2.0,396.0,19.0,39.0,,
2018-05-01 09:00,23.0,507.0,25.0,47.0,,
2018-05-01 10:00,36.0,469.0,30.0,57.0,,
2018-05-01 11:00,40.0,374.0,28.0,53.0,,
2018-05-01 12:00,56.0,417.0,22.0,38.0,,
2018-05-01 13:00,53.0,398.0,2.0,43.0,,
2018-05-01 14:00,62.0,515.0,25.0,47.0,,
2018-05-01 15:00,43.0,324.0,78.0,168.0,,
2018-05-01 16:00,24.0,375.0,60.0,140.0,,
2018-05-01 17:00,40.0,495.0,62.0,121.0,,
2018-05-01 18:00,32.0,700.0,49.0,96.0,,
2018-05-01 19:00,15.0,482.0,39.0,73.0,,
2018-05-01 20:00,28.0,668.0,45.0,90.0,,
2018-05-01 21:00,38.0,510.0,51.0,10.0,,
2018-05-01 22:00,30.0,463.0,57.0,118.0,,
2018-05-01 23:00,19.0,275.0,41.0,78.0,,
2018-05-02 00:00,19.0,146.0,34.0,7.0,,
2018-05-02 01:00,17.0,178.0,29.0,60.0,,
2018-05-02 02:00,22.0,217.0,26.0,53.0,,
2018-05-02 03:00,27.0,120.0,30.0,6.0,,
2018-05-02 04:00,28.0,175.0,2.0,47.0,,
2018-05-02 05:00,31.0,150.0,23.0,45.0,,
2018-05-02 06:00,37.0,223.0,18.0,40.0,,
2018-05-02 07:00,51.0,427.0,32.0,65.0,,
2018-05-02 08:00,65.0,50.0,4.0,72.0,,
2018-05-02 09:00,83.0,1950.0,48.0,91.0,,
2018-05-02 10:00,7.0,1723.0,43.0,87.0,,
2018-05-02 11:00,59.0,1084.0,55.0,116.0,,
2018-05-02 12:00,46.0,527.0,48.0,93.0,,
2018-05-02 13:00,42.0,385.0,34.0,70.0,,
2018-05-02 14:00,45.1,447.2,45.2,81.7,,
2018-04-26 00:00,32.0,406.0,35.0,73.0,,
2018-04-26 01:00,24.0,283.0,34.0,6.0,,
2018-04-26 02:00,1.0,236.0,33.0,6.0,,
2018-04-26 03:00,26.0,21.0,32.0,63.0,,
2018-04-26 04:00,34.0,22.0,37.0,74.0,,
2018-04-26 05:00,26.0,304.0,51.0,104.0,,
2018-04-26 06:00,28.0,325.0,47.0,102.0,,
2018-04-26 07:00,34.0,533.0,55.0,114.0,,
2018-04-26 08:00,50.0,1580.0,58.0,108.0,,
2018-04-26 09:00,54.0,3811.0,53.0,104.0,,
2018-04-26 10:00,46.0,3388.0,50.0,95.0,,
2018-04-26 11:00,61.0,2934.0,41.0,77.0,,
2018-04-26 12:00,63.0,2498.0,39.0,73.0,,
2018-04-26 13:00,33.0,2618.0,44.0,8.0,,
2018-04-26 14:00,50.0,3416.0,50.0,98.0,,
2018-04-26 15:00,70.0,2735.0,33.0,65.0,,
2018-04-26 16:00,6.0,1833.0,32.0,62.0,,
2018-04-26 17:00,76.0,1973.0,35.0,68.0,,
2018-04-26 18:00,94.0,4841.0,37.0,77.0,,
2018-04-26 19:00,102.0,2734.0,36.0,75.0,,
2018-04-26 20:00,65.0,2140.0,29.0,58.0,,
2018-04-26 21:00,88.0,2158.0,36.0,70.0,,
2018-04-26 22:00,64.0,2183.0,2.0,58.0,,
2018-04-26 23:00,94.0,213.0,36.0,73.0,,
2018-05-01 14:00,62.1,515.2,25.3,47.3,,
2018-04-21 00:00,75.0,386.0,27.0,51.0,,
2018-04-21 01:00,75.0,511.0,21.0,38.0,,
2018-04-21 02:00,71.0,675.0,26.0,5.0,,
2018-04-21 03:00,75.0,861.0,16.0,31.0,,
2018-04-21 04:00,71.0,1204.0,3.0,6.0,,
2018-04-21 05:00,73.0,1746.0,48.0,93.0,,
2018-04-21 06:00,69.0,2156.0,5.0,96.0,,
2018-04-21 07:00,82.0,2836.0,46.0,9.0,,
2018-04-21 08:00,10.0,3112.0,42.0,78.0,,
2018-04-21 09:00,94.0,2648.0,35.0,62.0,,
2018-04-21 10:00,94.0,2139.0,25.0,44.0,,
2018-04-21 11:00,86.0,2019.0,27.0,52.0,,
2018-04-21 12:00,12.0,1370.0,26.0,48.0,,
2018-04-21 13:00,84.0,1588.0,30.0,56.0,,
2018-04-21 14:00,113.0,1684.0,29.0,52.0,,
2018-04-21 15:00,57.0,1445.0,15.0,25.0,,
2018-04-21 16:00,47.0,3995.0,27.0,38.0,,
2018-04-21 17:00,45.0,2767.0,3.0,53.0,,
2018-04-21 18:00,6.0,5132.0,24.0,30.0,,
2018-04-21 19:00,6.0,1712.0,36.0,5.0,,
2018-04-21 20:00,34.0,1492.0,44.0,61.0,,
2018-04-21 21:00,43.0,1246.0,42.0,60.0,,
2018-04-21 22:00,38.0,559.0,16.0,21.0,,
2018-04-21 23:00,24.0,616.0,18.0,26.0,,
2018-04-22 00:00,30.0,460.0,38.0,45.0,,
2018-04-22 01:00,17.0,519.0,74.0,78.0,,
2018-04-22 02:00,13.0,403.0,7.0,81.0,,
2018-04-22 03:00,13.0,212.0,6.0,68.0,,
2018-04-22 04:00,15.0,256.0,29.0,35.0,,
2018-04-22 05:00,30.0,791.0,47.0,61.0,,
2018-04-22 06:00,22.0,1388.0,82.0,159.0,,
2018-04-22 07:00,64.0,3458.0,71.0,144.0,,
2018-04-22 08:00,15.0,1351.0,72.0,147.0,,
2018-04-22 09:00,22.0,820.0,68.0,135.0,,
2018-04-22 10:00,38.0,416.0,76.0,147.0,,
2018-04-22 11:00,36.0,170.0,83.0,175.0,,
2018-04-22 12:00,30.0,1215.0,76.0,160.0,,
2018-04-22 13:00,24.0,2220.0,37.0,77.0,,
2018-04-22 14:00,15.0,823.0,47.0,84.0,,
2018-04-22 15:00,15.0,823.0,20.0,36.0,,
2018-04-22 16:00,28.0,2381.0,28.0,58.0,,
2018-04-22 17:00,28.0,2242.0,3.0,5.0,,
2018-04-22 18:00,122.0,4808.0,34.0,78.0,,
2018-04-22 19:00,89.0,3183.0,38.0,71.0,,
2018-04-22 20:00,78.0,2859.0,29.0,5.0,,
2018-04-22 21:00,59.0,2597.0,24.0,51.0,,
2018-04-22 22:00,8.0,2037.0,37.0,72.0,,
2018-04-22 23:00,57.0,896.0,38.0,82.0,,
2018-04-23 00:00,2.0,508.0,32.0,66.0,,
2018-04-23 01:00,13.0,386.0,31.0,57.0,,
2018-04-23 02:00,5.0,338.0,30.0,56.0,,
2018-04-23 03:00,15.0,317.0,28.0,5.0,,
2018-04-23 04:00,22.0,329.0,33.0,67.0,,
2018-04-23 05:00,15.0,40.0,48.0,97.0,,
2018-04-23 06:00,17.0,428.0,43.0,95.0,,
2018-04-23 07:00,22.0,635.0,51.0,107.0,,
2018-04-23 08:00,39.0,168.0,54.0,101.0,,
2018-04-23 09:00,32.0,3550.0,42.0,81.0,,
2018-04-23 10:00,24.0,3127.0,38.0,72.0,,
2018-04-23 11:00,40.0,2673.0,29.0,55.0,,
2018-04-23 12:00,4.0,2237.0,28.0,51.0,,
2018-04-23 13:00,11.0,235.0,33.0,61.0,,
2018-04-23 14:00,28.0,3155.0,39.0,75.0,,
2018-04-23 15:00,87.0,2873.0,46.0,88.0,,
2018-04-23 16:00,36.0,197.0,4.0,82.0,,
2018-04-23 17:00,26.0,2112.0,49.0,94.0,,
2018-04-23 18:00,32.0,5181.0,58.0,112.0,,
2018-04-23 19:00,49.0,2873.0,56.0,120.0,,
2018-04-23 20:00,43.0,227.0,39.0,83.0,,
2018-04-23 21:00,6.0,229.0,51.0,106.0,,
2018-04-23 22:00,78.0,2322.0,39.0,82.0,,
2018-04-23 23:00,49.0,2272.0,54.0,112.0,,
2018-04-24 00:00,40.0,1220.0,47.0,10.0,,
2018-04-24 01:00,68.0,792.0,37.0,78.0,,
2018-04-24 02:00,57.0,567.0,29.0,62.0,,
2018-04-24 03:00,53.0,519.0,35.0,74.0,,
2018-04-24 04:00,2.0,449.0,39.0,82.0,,
2018-04-24 05:00,17.0,435.0,38.0,80.0,,
2018-04-24 06:00,30.0,686.0,29.0,6.0,,
2018-04-24 07:00,45.0,826.0,47.0,91.0,,
2018-04-24 08:00,40.0,1664.0,34.0,65.0,,
2018-04-24 09:00,26.0,741.0,33.0,62.0,,
2018-04-24 10:00,32.0,964.0,38.0,73.0,,
2018-04-24 11:00,34.0,1188.0,31.0,59.0,,
2018-04-24 12:00,49.0,992.0,57.0,116.0,,
2018-04-24 13:00,11.0,1043.0,38.0,7.0,,
2018-04-24 14:00,3.0,845.0,30.0,56.0,,
2018-04-24 15:00,72.0,2612.0,42.0,38.0,,
2018-04-24 16:00,66.0,1710.0,39.0,35.0,,
2018-04-24 17:00,78.0,185.0,45.0,41.0,,
2018-04-24 18:00,96.0,4719.0,54.0,50.0,,
2018-04-24 19:00,104.0,2612.0,52.0,48.0,,
2018-04-24 20:00,68.0,2017.0,36.0,32.0,,
2018-04-24 21:00,90.0,2035.0,47.0,43.0,,
2018-04-24 22:00,66.0,2060.0,35.0,31.0,,
2018-04-24 23:00,96.0,2011.0,50.0,46.0,,
2018-04-25 00:00,84.0,959.0,44.0,40.0,,
2018-04-25 01:00,63.0,530.0,33.0,29.0,,
2018-04-25 02:00,47.0,306.0,25.0,21.0,,
2018-04-25 03:00,59.0,258.0,31.0,27.0,,
2018-04-25 04:00,67.0,188.0,35.0,31.0,,
2018-04-25 05:00,65.0,174.0,34.0,3.0,,
2018-04-25 06:00,47.0,425.0,25.0,2.0,,
2018-04-25 07:00,75.0,565.0,43.0,40.0,,
2018-04-25 08:00,49.0,1403.0,30.0,27.0,,
2018-04-25 09:00,46.0,480.0,29.0,25.0,,
2018-04-25 10:00,57.0,703.0,34.0,31.0,,
2018-04-25 11:00,44.0,92.0,28.0,24.0,,
2018-04-25 12:00,50.0,731.0,53.0,27.0,,
2018-04-25 13:00,57.0,782.0,34.0,3.0,,
2018-04-25 14:00,41.0,584.0,26.0,22.0,,
2018-04-25 15:00,26.0,721.0,24.0,42.0,,
2018-04-25 16:00,42.0,227.0,32.0,65.0,,
2018-04-25 17:00,42.0,2139.0,34.0,63.0,,
2018-04-25 18:00,103.0,4705.0,38.0,85.0,,
2018-04-25 19:00,101.0,3081.0,42.0,78.0,,
2018-04-25 20:00,89.0,2756.0,33.0,64.0,,
2018-04-25 21:00,70.0,2494.0,28.0,58.0,,
2018-04-25 22:00,95.0,1935.0,41.0,7.0,,
2018-04-25 23:00,68.0,79.0,42.0,8.0,,
2018-04-26 08:00,50.8,1580.5,58.5,108.1,,
2018-04-25 14:00,41.1,584.2,26.6,22.9,,
2018-04-19 00:00,56.0,588.0,51.0,98.0,,
2018-04-19 01:00,50.0,517.0,4.0,87.0,,
2018-04-19 02:00,56.0,574.0,41.0,76.0,,
2018-04-19 03:00,60.0,639.0,39.0,75.0,,
2018-04-19 04:00,39.0,435.0,48.0,93.0,,
2018-04-19 05:00,58.0,669.0,32.0,58.0,,
2018-04-19 06:00,66.0,862.0,38.0,71.0,,
2018-04-19 07:00,68.0,1376.0,33.0,61.0,,
2018-04-19 08:00,79.0,1610.0,3.0,68.0,,
2018-04-19 09:00,73.0,1074.0,54.0,10.0,,
2018-04-19 10:00,81.0,781.0,42.0,8.0,,
2018-04-19 11:00,62.0,656.0,33.0,67.0,,
2018-04-19 12:00,73.0,504.0,24.0,52.0,,
2018-04-19 13:00,7.0,72.0,2.0,62.0,,
2018-04-19 14:00,61.0,728.0,32.0,68.0,,
2018-04-19 15:00,103.0,1015.0,86.0,162.0,,
2018-04-19 16:00,87.0,986.0,8.0,170.0,,
2018-04-19 17:00,76.0,875.0,77.0,153.0,,
2018-04-19 18:00,71.0,611.0,84.0,167.0,,
2018-04-19 19:00,70.0,509.0,12.0,257.0,,
2018-04-19 20:00,66.0,422.0,50.0,100.0,,
2018-04-19 21:00,85.0,457.0,61.0,138.0,,
2018-04-19 22:00,72.0,411.0,70.0,160.0,,
2018-04-19 23:00,70.0,381.0,82.0,17.0,,
2018-04-20 00:00,70.0,307.0,44.0,89.0,,
2018-04-20 01:00,59.0,204.0,44.0,89.0,,
2018-04-20 02:00,53.0,162.0,41.0,80.0,,
2018-04-20 03:00,59.0,86.0,34.0,71.0,,
2018-04-20 04:00,70.0,113.0,31.0,64.0,,
2018-04-20 05:00,53.0,252.0,37.0,75.0,,
2018-04-20 06:00,55.0,236.0,33.0,65.0,,
2018-04-20 07:00,91.0,591.0,39.0,81.0,,
2018-04-20 08:00,108.0,4113.0,45.0,90.0,,
2018-04-20 09:00,114.0,4111.0,34.0,67.0,,
2018-04-20 10:00,73.0,1928.0,61.0,12.0,,
2018-04-20 11:00,61.0,1205.0,5.0,110.0,,
2018-04-20 12:00,78.0,1846.0,48.0,91.0,,
2018-04-20 13:00,85.0,1053.0,3.0,74.0,,
2018-04-20 14:00,68.0,1414.0,42.0,81.0,,
2018-04-20 15:00,76.0,855.0,36.0,79.0,,
2018-04-20 16:00,70.0,901.0,26.0,52.0,,
2018-04-20 17:00,76.0,1205.0,43.0,88.0,,
2018-04-20 18:00,68.0,1075.0,23.0,52.0,,
2018-04-20 19:00,74.0,1133.0,33.0,71.0,,
2018-04-20 20:00,61.0,895.0,28.0,5.0,,
2018-04-20 21:00,55.0,901.0,19.0,34.0,,
2018-04-20 22:00,6.0,861.0,2.0,40.0,,
2018-04-20 23:00,40.0,843.0,9.0,15.0,,
2018-04-23 14:00,28.6,3155.1,39.2,75.8,,
2018-04-18 00:00,70.0,414.0,44.0,89.0,,
2018-04-18 01:00,59.0,426.0,44.0,89.0,,
2018-04-18 02:00,53.0,378.0,41.0,80.0,,
2018-04-18 03:00,59.0,335.0,34.0,71.0,,
2018-04-18 04:00,70.0,326.0,31.0,64.0,,
2018-04-18 05:00,53.0,315.0,37.0,75.0,,
2018-04-18 06:00,55.0,990.0,33.0,65.0,,
2018-04-18 07:00,91.0,637.0,39.0,81.0,,
2018-04-18 08:00,108.0,7134.0,45.0,90.0,,
2018-04-18 09:00,114.0,1467.0,34.0,67.0,,
2018-04-18 10:00,73.0,1198.0,61.0,12.0,,
2018-04-18 11:00,61.0,1317.0,5.0,110.0,,
2018-04-18 12:00,78.0,1234.0,48.0,91.0,,
2018-04-18 13:00,85.0,1126.0,3.0,74.0,,
2018-04-18 14:00,68.0,1026.0,42.0,81.0,,
2018-04-18 15:00,67.0,1480.0,4.0,93.0,,
2018-04-18 16:00,64.0,1207.0,52.0,98.0,,
2018-04-18 17:00,75.0,996.0,54.0,113.0,,
2018-04-18 18:00,85.0,207.0,38.0,7.0,,
2018-04-18 19:00,91.0,1714.0,43.0,7.0,,
2018-04-18 20:00,68.0,1318.0,38.0,75.0,,
2018-04-18 21:00,60.0,965.0,52.0,108.0,,
2018-04-18 22:00,56.0,926.0,27.0,48.0,,
2018-04-18 23:00,50.0,74.0,33.0,60.0,,
2018-04-09 00:00,45.0,685.0,38.0,77.0,,
2018-04-09 01:00,51.0,515.0,38.0,77.0,,
2018-04-09 02:00,51.0,499.0,35.0,68.0,,
2018-04-09 03:00,3.0,465.0,28.0,59.0,,
2018-04-09 04:00,30.0,478.0,25.0,52.0,,
2018-04-09 05:00,35.0,53.0,3.0,63.0,,
2018-04-09 06:00,45.0,729.0,27.0,53.0,,
2018-04-09 07:00,49.0,1388.0,33.0,69.0,,
2018-04-09 08:00,57.0,2210.0,39.0,77.0,,
2018-04-09 09:00,39.0,1061.0,2.0,55.0,,
2018-04-09 10:00,5.0,2140.0,58.0,121.0,,
2018-04-09 11:00,56.0,3111.0,6.0,123.0,,
2018-04-09 12:00,49.0,2887.0,45.0,100.0,,
2018-04-09 13:00,44.0,2260.0,41.0,83.0,,
2018-04-09 14:00,40.0,1855.0,49.0,98.0,,
2018-04-09 15:00,112.0,1427.0,49.0,95.0,,
2018-04-09 16:00,72.0,1507.0,46.0,89.0,,
2018-04-09 17:00,66.0,1761.0,52.0,101.0,,
2018-04-09 18:00,55.0,1942.0,61.0,119.0,,
2018-04-09 19:00,51.0,1798.0,59.0,127.0,,
2018-04-09 20:00,47.0,167.0,43.0,90.0,,
2018-04-09 21:00,49.0,1592.0,54.0,113.0,,
2018-04-09 22:00,51.0,1477.0,42.0,89.0,,
2018-04-09 23:00,38.0,1377.0,57.0,119.0,,
2018-04-10 00:00,4.0,1239.0,51.0,107.0,,
2018-04-10 01:00,34.0,1175.0,40.0,85.0,,
2018-04-10 02:00,38.0,1144.0,32.0,7.0,,
2018-04-10 03:00,40.0,1129.0,38.0,8.0,,
2018-04-10 04:00,32.0,1148.0,42.0,9.0,,
2018-04-10 05:00,40.0,1197.0,4.0,88.0,,
2018-04-10 06:00,51.0,1318.0,3.0,70.0,,
2018-04-10 07:00,95.0,1957.0,55.0,106.0,,
2018-04-10 08:00,86.0,1189.0,38.0,72.0,,
2018-04-10 09:00,115.0,1533.0,36.0,69.0,,
2018-04-10 10:00,89.0,1080.0,42.0,80.0,,
2018-04-10 11:00,107.0,1398.0,35.0,6.0,,
2018-04-10 12:00,112.0,1492.0,6.0,124.0,,
2018-04-10 13:00,122.0,1734.0,4.0,80.0,,
2018-04-10 14:00,106.0,1247.0,33.0,63.0,,
2018-04-10 15:00,103.0,1015.0,86.0,162.0,,
2018-04-10 16:00,87.0,986.0,8.0,170.0,,
2018-04-10 17:00,76.0,875.0,77.0,153.0,,
2018-04-10 18:00,71.0,611.0,84.0,167.0,,
2018-04-10 19:00,70.0,509.0,12.0,257.0,,
2018-04-10 20:00,66.0,422.0,50.0,100.0,,
2018-04-10 21:00,85.0,457.0,61.0,138.0,,
2018-04-10 22:00,72.0,411.0,70.0,160.0,,
2018-04-10 23:00,70.0,381.0,82.0,17.0,,
2018-04-11 00:00,70.0,307.0,44.0,89.0,,
2018-04-11 01:00,59.0,204.0,44.0,89.0,,
2018-04-11 02:00,53.0,162.0,41.0,80.0,,
2018-04-11 03:00,59.0,86.0,34.0,71.0,,
2018-04-11 04:00,70.0,113.0,31.0,64.0,,
2018-04-11 05:00,53.0,252.0,37.0,75.0,,
2018-04-11 06:00,55.0,236.0,33.0,65.0,,
2018-04-11 07:00,91.0,591.0,39.0,81.0,,
2018-04-11 08:00,108.0,4113.0,45.0,90.0,,
2018-04-11 09:00,114.0,4111.0,34.0,67.0,,
2018-04-11 10:00,73.0,1928.0,61.0,12.0,,
2018-04-11 11:00,61.0,1205.0,5.0,110.0,,
2018-04-11 12:00,78.0,1846.0,48.0,91.0,,
2018-04-11 13:00,85.0,1053.0,3.0,74.0,,
2018-04-11 14:00,68.0,1414.0,42.0,81.0,,
2018-04-11 15:00,55.0,2071.0,39.0,80.0,,
2018-04-11 16:00,64.0,2862.0,4.0,96.0,,
2018-04-11 17:00,57.0,3531.0,54.0,108.0,,
2018-04-11 18:00,68.0,4275.0,35.0,73.0,,
2018-04-11 19:00,52.0,2533.0,4.0,9.0,,
2018-04-11 20:00,61.0,2252.0,56.0,118.0,,
2018-04-11 21:00,47.0,2308.0,68.0,141.0,,
2018-04-11 22:00,47.0,2231.0,35.0,78.0,,
2018-04-11 23:00,55.0,2883.0,54.0,105.0,,
2018-04-12 00:00,40.0,136.0,44.0,91.0,,
2018-04-12 01:00,51.0,861.0,38.0,84.0,,
2018-04-12 02:00,4.0,703.0,35.0,73.0,,
2018-04-12 03:00,32.0,66.0,30.0,6.0,,
2018-04-12 04:00,30.0,565.0,33.0,67.0,,
2018-04-12 05:00,32.0,682.0,25.0,49.0,,
2018-04-12 06:00,28.0,922.0,24.0,53.0,,
2018-04-12 07:00,36.0,1586.0,32.0,67.0,,
2018-04-12 08:00,45.0,2030.0,50.0,108.0,,
2018-04-12 09:00,36.0,2451.0,54.0,117.0,,
2018-04-12 10:00,51.0,2641.0,55.0,113.0,,
2018-04-12 11:00,36.0,2271.0,43.0,87.0,,
2018-04-12 12:00,38.0,1814.0,36.0,78.0,,
2018-04-12 13:00,4.0,1262.0,34.0,74.0,,
2018-04-12 14:00,35.6,1127.5,47.2,97.8,,
2018-04-07 00:00,77.0,421.0,4.0,87.0,,
2018-04-07 01:00,77.0,375.0,48.0,93.0,,
2018-04-07 02:00,6.0,440.0,32.0,67.0,,
2018-04-07 03:00,58.0,431.0,22.0,46.0,,
2018-04-07 04:00,4.0,490.0,37.0,78.0,,
2018-04-07 05:00,48.0,686.0,5.0,108.0,,
2018-04-07 06:00,92.0,2170.0,57.0,113.0,,
2018-04-07 07:00,11.0,8289.0,52.0,108.0,,
2018-04-07 08:00,71.0,785.0,49.0,98.0,,
2018-04-07 09:00,54.0,593.0,34.0,67.0,,
2018-04-07 10:00,78.0,1250.0,49.0,98.0,,
2018-04-07 11:00,68.0,987.0,33.0,69.0,,
2018-04-07 12:00,64.0,1067.0,25.0,47.0,,
2018-04-07 13:00,7.0,1228.0,40.0,79.0,,
2018-04-07 14:00,72.0,1364.0,48.0,9.0,,
2018-04-07 20:00,45.0,49.0,31.0,62.0,,
2018-04-07 22:00,45.0,463.0,20.0,3.0,,
2018-04-07 23:00,49.0,344.0,26.0,47.0,,
2018-04-08 01:00,32.0,158.0,39.0,75.0,,
2018-04-08 02:00,30.0,79.0,34.0,6.0,,
2018-04-08 08:00,61.0,198.0,30.0,5.0,,
2018-04-08 09:00,87.0,1627.0,47.0,96.0,,
2018-04-08 10:00,8.0,1156.0,35.0,73.0,,
2018-04-08 11:00,68.0,683.0,26.0,54.0,,
2018-04-08 12:00,61.0,696.0,17.0,40.0,,
2018-04-08 13:00,74.0,440.0,21.0,49.0,,
2018-04-08 14:00,0.6,783.0,25.0,55.0,,
2018-04-08 15:00,85.0,1102.0,78.0,148.0,,
2018-04-08 16:00,66.0,117.0,66.0,141.0,,
2018-04-08 17:00,60.0,160.0,59.0,118.0,,
2018-04-08 18:00,62.0,112.0,65.0,140.0,,
2018-04-08 19:00,70.0,994.0,49.0,95.0,,
2018-04-08 20:00,58.0,1033.0,42.0,8.0,,
2018-04-08 21:00,49.0,663.0,39.0,78.0,,
2018-04-08 22:00,43.0,629.0,48.0,101.0,,
2018-04-08 23:00,43.0,559.0,42.0,87.0,,
2018-04-11 14:00,68.8,1414.4,42.7,81.9,,
2018-03-31 00:00,34.0,378.0,22.0,47.0,,
2018-03-31 01:00,41.0,471.0,31.0,58.0,,
2018-03-31 02:00,47.0,512.0,34.0,67.0,,
2018-03-31 03:00,44.0,552.0,27.0,52.0,,
2018-03-31 04:00,42.0,56.0,33.0,62.0,,
2018-03-31 05:00,34.0,427.0,25.0,48.0,,
2018-03-31 06:00,36.0,327.0,22.0,44.0,,
2018-03-31 07:00,41.0,385.0,37.0,61.0,,
2018-03-31 08:00,4.0,673.0,42.0,85.0,,
2018-03-31 09:00,71.0,512.0,45.0,91.0,,
2018-03-31 10:00,66.0,410.0,41.0,80.0,,
2018-03-31 11:00,59.0,591.0,32.0,68.0,,
2018-03-31 12:00,66.0,912.0,35.0,71.0,,
2018-03-31 13:00,78.0,671.0,27.0,56.0,,
2018-03-31 14:00,8.0,778.0,31.0,62.0,,
2018-03-31 15:00,87.0,1000.0,77.0,145.0,,
2018-03-31 16:00,68.0,1071.0,65.0,138.0,,
2018-03-31 17:00,6.0,1506.0,58.0,115.0,,
2018-03-31 18:00,64.0,1017.0,64.0,137.0,,
2018-03-31 19:00,72.0,891.0,48.0,92.0,,
2018-03-31 20:00,61.0,930.0,41.0,86.0,,
2018-03-31 21:00,51.0,561.0,38.0,76.0,,
2018-03-31 22:00,45.0,527.0,47.0,98.0,,
2018-03-31 23:00,45.0,457.0,41.0,84.0,,
2018-04-01 00:00,47.0,582.0,3.0,74.0,,
2018-04-01 01:00,53.0,413.0,37.0,74.0,,
2018-04-01 02:00,53.0,397.0,34.0,65.0,,
2018-04-01 03:00,34.0,363.0,27.0,56.0,,
2018-04-01 04:00,32.0,375.0,24.0,49.0,,
2018-04-01 05:00,38.0,429.0,29.0,60.0,,
2018-04-01 06:00,47.0,627.0,26.0,50.0,,
2018-04-01 07:00,51.0,1286.0,32.0,66.0,,
2018-04-01 08:00,59.0,2107.0,38.0,75.0,,
2018-04-01 09:00,4.0,959.0,26.0,52.0,,
2018-04-01 10:00,55.0,2037.0,57.0,118.0,,
2018-04-01 11:00,59.0,3009.0,58.0,121.0,,
2018-04-01 12:00,51.0,2785.0,44.0,97.0,,
2018-04-01 13:00,46.0,2157.0,40.0,80.0,,
2018-04-01 14:00,42.0,1752.0,48.0,95.0,,
2018-04-01 15:00,87.0,1000.0,72.0,133.0,,
2018-04-01 16:00,68.0,1071.0,60.0,12.0,,
2018-04-01 17:00,6.0,1506.0,53.0,103.0,,
2018-04-01 18:00,64.0,1017.0,59.0,125.0,,
2018-04-01 19:00,72.0,891.0,43.0,80.0,,
2018-04-01 20:00,61.0,930.0,36.0,74.0,,
2018-04-01 21:00,51.0,561.0,33.0,64.0,,
2018-04-01 22:00,45.0,527.0,42.0,8.0,,
2018-04-01 23:00,45.0,457.0,36.0,73.0,,
2018-04-02 00:00,47.0,582.0,3.0,62.0,,
2018-04-02 01:00,53.0,413.0,32.0,62.0,,
2018-04-02 02:00,53.0,397.0,29.0,53.0,,
2018-04-02 03:00,34.0,363.0,22.0,4.0,,
2018-04-02 04:00,32.0,375.0,19.0,37.0,,
2018-04-02 05:00,38.0,429.0,24.0,48.0,,
2018-04-02 06:00,47.0,627.0,21.0,39.0,,
2018-04-02 07:00,51.0,1286.0,27.0,55.0,,
2018-04-02 08:00,59.0,2107.0,33.0,63.0,,
2018-04-02 09:00,4.0,959.0,21.0,41.0,,
2018-04-02 10:00,55.0,2037.0,52.0,106.0,,
2018-04-02 11:00,59.0,3009.0,53.0,109.0,,
2018-04-02 12:00,51.0,2785.0,39.0,85.0,,
2018-04-02 13:00,46.0,2157.0,35.0,6.0,,
2018-04-02 14:00,42.0,1752.0,43.0,83.0,,
2018-04-02 15:00,6.0,525.0,36.0,71.0,,
2018-04-02 16:00,87.0,576.0,3.0,5.0,,
2018-04-02 17:00,55.0,610.0,41.0,80.0,,
2018-04-02 18:00,61.0,73.0,4.0,91.0,,
2018-04-02 19:00,32.0,728.0,52.0,99.0,,
2018-04-02 20:00,53.0,71.0,58.0,115.0,,
2018-04-02 21:00,47.0,568.0,5.0,10.0,,
2018-04-02 22:00,53.0,585.0,53.0,104.0,,
2018-04-02 23:00,61.0,368.0,43.0,85.0,,
2018-04-03 00:00,49.0,291.0,33.0,68.0,,
2018-04-03 01:00,53.0,224.0,39.0,76.0,,
2018-04-03 02:00,43.0,232.0,36.0,71.0,,
2018-04-03 03:00,40.0,179.0,34.0,67.0,,
2018-04-03 04:00,61.0,133.0,30.0,5.0,,
2018-04-03 10:00,67.0,1426.0,54.0,10.0,,
2018-04-03 11:00,58.0,124.0,37.0,76.0,,
2018-04-03 12:00,55.0,1127.0,29.0,55.0,,
2018-04-03 13:00,51.0,1025.0,22.0,48.0,,
2018-04-03 14:00,58.0,1147.0,26.0,51.0,,
2018-04-03 15:00,70.0,597.0,39.0,8.0,,
2018-04-03 16:00,82.0,515.0,44.0,8.0,,
2018-04-03 17:00,10.0,967.0,46.0,10.0,,
2018-04-03 18:00,78.0,649.0,30.0,6.0,,
2018-04-03 19:00,110.0,1106.0,35.0,66.0,,
2018-04-03 20:00,93.0,709.0,30.0,62.0,,
2018-04-03 21:00,101.0,800.0,44.0,96.0,,
2018-04-03 22:00,62.0,362.0,19.0,36.0,,
2018-04-03 23:00,78.0,236.0,25.0,4.0,,
2018-04-04 00:00,77.0,399.0,43.0,86.0,,
2018-04-04 01:00,75.0,319.0,38.0,75.0,,
2018-04-04 02:00,66.0,413.0,33.0,64.0,,
2018-04-04 03:00,62.0,44.0,31.0,62.0,,
2018-04-04 04:00,73.0,474.0,40.0,81.0,,
2018-04-04 05:00,58.0,469.0,24.0,46.0,,
2018-04-04 06:00,6.0,523.0,30.0,58.0,,
2018-04-04 07:00,58.0,491.0,25.0,49.0,,
2018-04-04 08:00,71.0,740.0,29.0,56.0,,
2018-04-04 09:00,79.0,851.0,46.0,96.0,,
2018-04-04 10:00,47.4,2330.3,34.5,73.6,,
