time,NO2,CO,PM2.5,PM10,SO2,O3
2018-08-09 00:00,9.0,135.0,1.0,21.0,,
2018-08-09 01:00,7.0,974.0,11.0,24.0,,
2018-08-09 02:00,11.0,842.0,9.0,19.0,,
2018-08-09 03:00,9.0,890.0,8.0,14.0,,
2018-08-09 04:00,5.0,856.0,12.0,22.0,,
2018-08-09 05:00,5.0,861.0,13.0,26.0,,
2018-08-09 06:00,7.0,1156.0,1.0,32.0,,
2018-08-09 07:00,3.0,1821.0,27.0,51.0,,
2018-08-09 08:00,7.0,2427.0,24.0,4.0,,
2018-08-09 09:00,15.0,2587.0,2.0,41.0,,
2018-08-09 10:00,7.0,1647.0,14.0,28.0,,
2018-08-09 11:00,1.0,1357.0,17.0,31.0,,
2018-08-09 12:00,9.0,1360.0,18.0,38.0,,
2018-08-09 13:00,13.0,900.0,23.0,46.0,,
2018-08-09 14:00,9.0,2222.0,26.0,54.0,,
2018-08-09 15:00,13.0,218.0,23.0,4.0,,
2018-08-09 16:00,1.0,2580.0,28.0,52.0,,
2018-08-09 17:00,15.0,3272.0,34.0,61.0,,
2018-08-09 18:00,13.0,1733.0,39.0,77.0,,
2018-08-09 19:00,11.0,3582.0,27.0,56.0,,
2018-08-09 20:00,13.0,5082.0,27.0,74.0,,
2018-08-09 21:00,2.0,4095.0,31.0,61.0,,
2018-08-09 22:00,28.0,5451.0,19.0,40.0,,
2018-08-09 23:00,34.0,4668.0,25.0,51.0,,
2018-08-10 00:00,2.0,2513.0,15.0,32.0,,
2018-08-10 01:00,17.0,200.0,23.0,47.0,,
2018-08-10 02:00,9.0,1470.0,24.0,44.0,,
2018-08-10 03:00,7.0,1333.0,22.0,46.0,,
2018-08-10 04:00,3.0,1141.0,21.0,45.0,,
2018-08-10 05:00,5.0,123.0,36.0,71.0,,
2018-08-10 06:00,3.0,1221.0,14.0,25.0,,
2018-08-10 07:00,5.0,1538.0,30.0,82.0,,
2018-08-10 08:00,3.0,2338.0,32.0,67.0,,
2018-08-10 09:00,3.0,2259.0,20.0,40.0,,
2018-08-10 10:00,11.0,2378.0,37.0,70.0,,
2018-08-10 11:00,1.0,1437.0,30.0,61.0,,
2018-08-10 12:00,3.0,1625.0,32.0,65.0,,
2018-08-10 13:00,9.0,1260.0,27.0,50.0,,
2018-08-10 14:00,15.0,113.0,23.0,48.0,,
2018-08-10 15:00,3.0,1361.0,16.0,32.0,,
2018-08-10 16:00,7.0,1907.0,25.0,46.0,,
2018-08-10 17:00,19.0,2425.0,19.0,37.0,,
2018-08-10 18:00,19.0,371.0,30.0,61.0,,
2018-08-10 19:00,22.0,5914.0,33.0,67.0,,
2018-08-10 20:00,53.0,7577.0,25.0,53.0,,
2018-08-10 21:00,4.0,5690.0,21.0,37.0,,
2018-08-10 22:00,26.0,3511.0,1.0,3.0,,
2018-08-10 23:00,13.0,2712.0,23.0,46.0,,
2018-08-11 00:00,34.0,3399.0,33.0,65.0,,
2018-08-11 01:00,28.0,2869.0,29.0,59.0,,
2018-08-11 02:00,22.0,1802.0,26.0,55.0,,
2018-08-11 03:00,13.0,1231.0,19.0,42.0,,
2018-08-11 04:00,5.0,1447.0,20.0,36.0,,
2018-08-11 05:00,9.0,1313.0,13.0,25.0,,
2018-08-11 06:00,9.0,1698.0,25.0,49.0,,
2018-08-11 07:00,1.0,1986.0,21.0,41.0,,
2018-08-11 08:00,1.0,2348.0,23.0,48.0,,
2018-08-11 09:00,1.0,1908.0,29.0,59.0,,
2018-08-11 10:00,5.0,1802.0,29.0,57.0,,
2018-08-11 11:00,11.0,1492.0,23.0,44.0,,
2018-08-11 12:00,3.0,1379.0,3.0,59.0,,
2018-08-11 13:00,7.0,1265.0,29.0,5.0,,
2018-08-11 14:00,3.0,119.0,37.0,71.0,,
2018-08-11 15:00,15.0,1022.0,26.0,51.0,,
2018-08-11 16:00,1.0,134.0,31.0,66.0,,
2018-08-11 17:00,13.0,1686.0,42.0,8.0,,
2018-08-11 18:00,2.0,1756.0,47.0,96.0,,
2018-08-11 19:00,11.0,1442.0,40.0,8.0,,
2018-08-11 20:00,7.0,1602.0,27.0,54.0,,
2018-08-11 21:00,2.0,1913.0,32.0,66.0,,
2018-08-11 22:00,17.0,2075.0,27.0,5.0,,
2018-08-11 23:00,7.0,1889.0,22.0,46.0,,
2018-08-12 00:00,15.0,1354.0,21.0,40.0,,
2018-08-12 01:00,19.0,1280.0,18.0,3.0,,
2018-08-12 02:00,11.0,1228.0,22.0,41.0,,
2018-08-12 03:00,3.0,890.0,22.0,43.0,,
2018-08-12 04:00,1.0,644.0,16.0,32.0,,
2018-08-12 05:00,5.0,693.0,17.0,34.0,,
2018-08-12 06:00,3.0,75.0,23.0,50.0,,
2018-08-12 07:00,3.0,960.0,20.0,4.0,,
2018-08-12 08:00,9.0,1512.0,18.0,46.0,,
2018-08-12 09:00,1.0,1513.0,28.0,59.0,,
2018-08-12 10:00,5.0,1216.0,14.0,27.0,,
2018-08-12 12:00,7.0,1214.0,24.0,53.0,,
2018-08-12 13:00,5.0,1210.0,18.0,36.0,,
2018-08-12 14:00,3.0,998.0,14.0,34.0,,
2018-08-12 15:00,3.0,934.0,27.0,6.0,,
2018-08-12 16:00,9.0,1145.0,25.0,53.0,,
2018-08-12 17:00,7.0,1225.0,21.0,47.0,,
2018-08-12 18:00,19.0,991.0,18.0,3.0,,
2018-08-12 19:00,13.0,973.0,21.0,37.0,,
2018-08-12 20:00,11.0,1752.0,39.0,76.0,,
2018-08-12 21:00,5.0,1362.0,33.0,60.0,,
2018-08-12 22:00,7.0,1618.0,32.0,63.0,,
2018-08-12 23:00,15.0,1534.0,29.0,51.0,,
2018-08-13 00:00,7.0,999.0,30.0,56.0,,
2018-08-13 01:00,5.0,824.0,17.0,39.0,,
2018-08-13 02:00,3.0,812.0,20.0,44.0,,
2018-08-13 03:00,9.0,812.0,19.0,36.0,,
2018-08-13 04:00,3.0,738.0,12.0,24.0,,
2018-08-13 05:00,3.0,887.0,11.0,28.0,,
2018-08-13 06:00,5.0,113.0,21.0,44.0,,
2018-08-13 07:00,5.0,160.0,22.0,47.0,,
2018-08-13 08:00,11.0,2488.0,17.0,36.0,,
2018-08-13 09:00,3.0,1766.0,25.0,50.0,,
2018-08-13 10:00,11.0,1235.0,29.0,51.0,,
2018-08-13 11:00,7.0,152.0,22.0,39.0,,
2018-08-13 12:00,5.0,1257.0,29.0,54.0,,
2018-08-13 13:00,11.0,1037.0,26.0,5.0,,
2018-08-13 14:00,3.8,1098.9,16.2,38.6,,
2018-07-31 00:00,9.0,1634.0,34.0,67.0,,
2018-07-31 01:00,7.0,1479.0,29.0,60.0,,
2018-07-31 02:00,7.0,982.0,29.0,55.0,,
2018-07-31 03:00,7.0,892.0,25.0,47.0,,
2018-07-31 04:00,5.0,1033.0,2.0,45.0,,
2018-07-31 05:00,3.0,1004.0,24.0,49.0,,
2018-07-31 06:00,5.0,1335.0,20.0,35.0,,
2018-07-31 07:00,3.0,1538.0,20.0,38.0,,
2018-07-31 08:00,7.0,2576.0,17.0,47.0,,
2018-07-31 09:00,9.0,2616.0,30.0,60.0,,
2018-07-31 10:00,15.0,2380.0,33.0,64.0,,
2018-07-31 11:00,11.0,2619.0,27.0,5.0,,
2018-07-31 12:00,5.0,2402.0,33.0,65.0,,
2018-07-31 13:00,19.0,2334.0,30.0,60.0,,
2018-07-31 14:00,7.0,2012.0,39.0,79.0,,
2018-07-31 15:00,13.0,1393.0,24.0,45.0,,
2018-07-31 16:00,15.0,2032.0,17.0,29.0,,
2018-07-31 17:00,22.0,3222.0,20.0,4.0,,
2018-07-31 18:00,5.0,147.0,19.0,39.0,,
2018-07-31 19:00,7.0,1684.0,14.0,36.0,,
2018-07-31 20:00,19.0,3229.0,10.0,22.0,,
2018-07-31 21:00,11.0,1651.0,35.0,75.0,,
2018-07-31 22:00,9.0,914.0,33.0,69.0,,
2018-07-31 23:00,7.0,799.0,27.0,5.0,,
2018-08-01 00:00,9.0,896.0,2.0,40.0,,
2018-08-01 01:00,11.0,850.0,19.0,33.0,,
2018-08-01 02:00,13.0,765.0,15.0,25.0,,
2018-08-01 03:00,7.0,564.0,24.0,46.0,,
2018-08-01 04:00,5.0,611.0,25.0,48.0,,
2018-08-01 05:00,9.0,779.0,26.0,5.0,,
2018-08-01 06:00,11.0,841.0,27.0,51.0,,
2018-08-01 07:00,7.0,1428.0,31.0,59.0,,
2018-08-01 08:00,5.0,2504.0,32.0,67.0,,
2018-08-01 09:00,13.0,2202.0,27.0,61.0,,
2018-08-01 10:00,5.0,1655.0,27.0,52.0,,
2018-08-01 11:00,9.0,1728.0,27.0,51.0,,
2018-08-01 12:00,7.0,146.0,24.0,42.0,,
2018-08-01 13:00,7.0,1203.0,21.0,37.0,,
2018-08-01 14:00,8.0,1182.0,22.0,40.0,,
2018-08-01 15:00,15.0,173.0,26.0,54.0,,
2018-08-01 16:00,15.0,1510.0,3.0,69.0,,
2018-08-01 17:00,13.0,1749.0,42.0,86.0,,
2018-08-01 18:00,13.0,2225.0,44.0,94.0,,
2018-08-01 19:00,17.0,4978.0,40.0,83.0,,
2018-08-01 20:00,15.0,4513.0,27.0,56.0,,
2018-08-01 21:00,3.0,2218.0,33.0,6.0,,
2018-08-01 22:00,3.0,3142.0,27.0,55.0,,
2018-08-01 23:00,5.0,2710.0,22.0,48.0,,
2018-08-02 00:00,9.0,1310.0,21.0,43.0,,
2018-08-02 01:00,7.0,1053.0,18.0,39.0,,
2018-08-02 02:00,5.0,827.0,22.0,4.0,,
2018-08-02 03:00,7.0,743.0,22.0,46.0,,
2018-08-02 04:00,9.0,83.0,16.0,35.0,,
2018-08-02 05:00,9.0,869.0,17.0,37.0,,
2018-08-02 06:00,11.0,944.0,23.0,5.0,,
2018-08-02 07:00,7.0,941.0,20.0,44.0,,
2018-08-02 08:00,3.0,2759.0,1.0,48.0,,
2018-08-02 09:00,1.0,1606.0,28.0,62.0,,
2018-08-02 10:00,7.0,1555.0,14.0,3.0,,
2018-08-02 11:00,13.0,148.0,23.0,44.0,,
2018-08-02 12:00,9.0,1827.0,25.0,56.0,,
2018-08-02 13:00,7.0,1639.0,1.0,39.0,,
2018-08-02 14:00,9.0,1202.0,1.0,37.0,,
2018-08-02 15:00,5.0,1250.0,15.0,33.0,,
2018-08-02 16:00,3.0,1248.0,24.0,47.0,,
2018-08-02 17:00,17.0,2093.0,18.0,38.0,,
2018-08-02 18:00,13.0,2260.0,29.0,62.0,,
2018-08-02 19:00,2.0,3806.0,32.0,68.0,,
2018-08-02 20:00,1.0,2112.0,24.0,54.0,,
2018-08-02 21:00,9.0,1163.0,20.0,38.0,,
2018-08-02 22:00,7.0,1000.0,16.0,32.0,,
2018-08-02 23:00,9.0,1020.0,22.0,47.0,,
2018-08-03 00:00,11.0,661.0,32.0,66.0,,
2018-08-03 01:00,11.0,603.0,28.0,60.0,,
2018-08-03 02:00,13.0,574.0,25.0,56.0,,
2018-08-03 03:00,11.0,68.0,18.0,43.0,,
2018-08-03 04:00,11.0,709.0,20.0,37.0,,
2018-08-03 05:00,7.0,776.0,12.0,26.0,,
2018-08-03 06:00,9.0,968.0,24.0,50.0,,
2018-08-03 07:00,5.0,1572.0,2.0,42.0,,
2018-08-03 08:00,9.0,2813.0,2.0,49.0,,
2018-08-03 09:00,30.0,2544.0,28.0,60.0,,
2018-08-03 10:00,28.0,2041.0,28.0,58.0,,
2018-08-03 11:00,17.0,1627.0,22.0,45.0,,
2018-08-03 12:00,19.0,1268.0,30.0,60.0,,
2018-08-03 13:00,13.0,1246.0,28.0,56.0,,
2018-08-03 14:00,5.0,1048.0,36.0,72.0,,
2018-08-03 15:00,15.0,1416.0,38.0,73.0,,
2018-08-03 16:00,2.0,1830.0,27.0,54.0,,
2018-08-03 17:00,15.0,2780.0,25.0,51.0,,
2018-08-03 18:00,11.0,2358.0,39.0,78.0,,
2018-08-03 19:00,15.0,1896.0,33.0,65.0,,
2018-08-03 20:00,5.0,1549.0,27.0,57.0,,
2018-08-03 21:00,7.0,1120.0,21.0,43.0,,
2018-08-03 22:00,13.0,1158.0,21.0,38.0,,
2018-08-03 23:00,2.0,2085.0,22.0,41.0,,
2018-08-04 00:00,5.0,1040.0,26.0,52.0,,
2018-08-04 01:00,5.0,789.0,23.0,45.0,,
2018-08-04 02:00,13.0,834.0,21.0,41.0,,
2018-08-04 03:00,5.0,734.0,17.0,32.0,,
2018-08-04 04:00,7.0,759.0,25.0,51.0,,
2018-08-04 05:00,7.0,811.0,24.0,52.0,,
2018-08-04 06:00,11.0,1132.0,34.0,70.0,,
2018-08-04 07:00,9.0,134.0,33.0,61.0,,
2018-08-04 08:00,9.0,1910.0,29.0,57.0,,
2018-08-04 09:00,13.0,2441.0,42.0,81.0,,
2018-08-04 10:00,17.0,2569.0,32.0,68.0,,
2018-08-04 11:00,24.0,2401.0,26.0,50.0,,
2018-08-04 12:00,15.0,2518.0,28.0,57.0,,
2018-08-04 13:00,11.0,2037.0,33.0,70.0,,
2018-08-04 14:00,7.6,1915.9,30.5,64.1,,
2018-05-26 15:00,52.0,695.0,22.0,45.0,,
2018-05-26 16:00,67.0,986.0,29.0,58.0,,
2018-05-26 17:00,44.0,1106.0,23.0,50.0,,
2018-05-26 18:00,42.0,1007.0,25.0,42.0,,
2018-05-26 19:00,46.0,978.0,30.0,59.0,,
2018-05-26 20:00,4.0,812.0,24.0,43.0,,
2018-05-26 21:00,42.0,701.0,15.0,29.0,,
2018-05-26 22:00,44.0,52.0,20.0,37.0,,
2018-05-26 23:00,46.0,50.0,10.0,18.0,,
2018-05-27 00:00,56.0,439.0,1.0,29.0,,
2018-05-27 01:00,55.0,398.0,16.0,29.0,,
2018-05-27 02:00,54.0,353.0,31.0,60.0,,
2018-05-27 03:00,29.0,1723.0,19.0,37.0,,
2018-05-27 04:00,27.0,243.0,23.0,42.0,,
2018-05-27 05:00,27.0,293.0,2.0,5.0,,
2018-05-27 06:00,29.0,400.0,24.0,54.0,,
2018-05-27 07:00,27.0,688.0,48.0,92.0,,
2018-05-27 08:00,31.0,1076.0,23.0,5.0,,
2018-05-27 09:00,4.0,1127.0,21.0,39.0,,
2018-05-27 10:00,35.0,624.0,29.0,55.0,,
2018-05-27 11:00,42.0,751.0,21.0,48.0,,
2018-05-27 12:00,37.0,893.0,38.0,75.0,,
2018-05-27 13:00,31.0,466.0,2.0,39.0,,
2018-05-27 14:00,58.2,520.7,41.0,79.0,,
2018-05-10 00:00,53.0,521.0,23.0,46.0,,
2018-05-10 01:00,45.0,221.0,1.0,38.0,,
2018-05-10 02:00,51.0,149.0,18.0,3.0,,
2018-05-10 03:00,55.0,14.0,14.0,26.0,,
2018-05-10 04:00,53.0,241.0,14.0,23.0,,
2018-05-10 05:00,4.0,162.0,13.0,27.0,,
2018-05-10 06:00,40.0,295.0,9.0,14.0,,
2018-05-10 07:00,51.0,548.0,9.0,16.0,,
2018-05-10 08:00,57.0,834.0,6.0,25.0,,
2018-05-10 09:00,47.0,843.0,19.0,39.0,,
2018-05-10 10:00,43.0,494.0,22.0,43.0,,
2018-05-10 11:00,4.0,664.0,16.0,28.0,,
2018-05-10 12:00,55.0,69.0,22.0,44.0,,
2018-05-10 13:00,55.0,458.0,20.0,39.0,,
2018-05-10 14:00,57.0,424.0,28.0,57.0,,
2018-05-10 15:00,70.0,543.0,16.0,35.0,,
2018-05-10 16:00,43.0,584.0,25.0,49.0,,
2018-05-10 17:00,49.0,958.0,19.0,40.0,,
2018-05-10 18:00,45.0,89.0,31.0,64.0,,
2018-05-10 19:00,45.0,780.0,34.0,70.0,,
2018-05-10 20:00,45.0,562.0,25.0,56.0,,
2018-05-10 21:00,38.0,497.0,21.0,40.0,,
2018-05-10 22:00,38.0,448.0,10.0,34.0,,
2018-05-10 23:00,4.0,347.0,23.0,49.0,,
2018-05-11 00:00,34.0,229.0,33.0,68.0,,
2018-05-11 01:00,34.0,182.0,29.0,62.0,,
2018-05-11 02:00,30.0,138.0,26.0,58.0,,
2018-05-11 03:00,24.0,120.0,20.0,45.0,,
2018-05-11 04:00,28.0,119.0,2.0,39.0,,
2018-05-11 05:00,28.0,158.0,1.0,28.0,,
2018-05-11 06:00,32.0,402.0,25.0,52.0,,
2018-05-11 07:00,34.0,678.0,22.0,44.0,,
2018-05-11 08:00,32.0,1666.0,24.0,51.0,,
2018-05-11 09:00,42.0,720.9,29.0,62.0,,
2018-04-27 00:00,15.0,322.0,12.0,26.0,,
2018-04-27 01:00,21.0,347.0,1.0,25.0,,
2018-04-27 02:00,21.0,316.0,28.0,57.0,,
2018-04-27 03:00,15.0,255.0,17.0,34.0,,
2018-04-27 04:00,17.0,261.0,20.0,39.0,,
2018-04-27 05:00,17.0,395.0,26.0,52.0,,
2018-04-27 06:00,2.0,551.0,22.0,40.0,,
2018-04-27 07:00,24.0,878.0,30.0,58.0,,
2018-04-27 08:00,32.0,1922.0,35.0,76.0,,
2018-04-27 09:00,17.0,1264.0,19.0,45.0,,
2018-04-27 10:00,36.0,1066.0,28.0,51.0,,
2018-04-27 11:00,32.0,989.0,20.0,44.0,,
2018-04-27 12:00,34.0,1060.0,29.0,57.0,,
2018-04-27 13:00,23.0,650.0,22.0,45.0,,
2018-04-27 14:00,25.0,682.0,23.0,45.0,,
2018-04-27 18:00,78.0,3669.0,36.0,6.0,,
2018-04-27 19:00,53.0,2165.0,34.0,63.0,,
2018-04-27 20:00,66.0,2553.0,32.0,58.0,,
2018-04-27 21:00,64.0,2105.0,35.0,66.0,,
2018-04-27 22:00,66.0,2134.0,39.0,74.0,,
2018-04-27 23:00,53.0,2063.0,32.0,63.0,,
2018-04-28 00:00,45.0,1348.0,30.0,58.0,,
2018-04-28 01:00,40.0,1558.0,28.0,52.0,,
2018-04-28 02:00,34.0,799.0,26.0,48.0,,
2018-04-28 03:00,43.0,856.0,30.0,60.0,,
2018-04-28 04:00,34.0,744.0,30.0,64.0,,
2018-04-28 05:00,30.0,642.0,37.0,81.0,,
2018-04-28 06:00,40.0,777.0,40.0,75.0,,
2018-04-28 07:00,53.0,1073.0,45.0,87.0,,
2018-04-28 08:00,47.0,1417.0,38.0,73.0,,
2018-04-28 09:00,43.0,1160.0,32.0,60.0,,
2018-04-28 10:00,45.0,1306.0,33.0,67.0,,
2018-04-28 11:00,45.0,1282.0,28.0,55.0,,
2018-04-28 12:00,51.0,1110.0,26.0,50.0,,
2018-04-28 13:00,43.0,1091.0,24.0,48.0,,
2018-04-28 14:00,43.0,1030.0,22.0,45.0,,
2018-04-28 15:00,68.0,1568.0,30.0,61.0,,
2018-04-28 16:00,51.0,1120.0,47.0,97.0,,
2018-04-28 17:00,47.0,1263.0,41.0,85.0,,
2018-04-28 18:00,4.0,1250.0,54.0,10.0,,
2018-04-28 19:00,64.0,2349.0,48.0,91.0,,
2018-04-28 20:00,74.0,1893.0,37.0,78.0,,
2018-04-28 21:00,6.0,1575.0,29.0,62.0,,
2018-04-28 22:00,66.0,1279.0,26.0,51.0,,
2018-04-28 23:00,47.0,1112.0,22.0,42.0,,
2018-04-29 00:00,36.0,826.0,34.0,70.0,,
2018-04-29 01:00,28.0,535.0,33.0,67.0,,
2018-04-29 02:00,4.0,447.0,30.0,60.0,,
2018-04-29 03:00,30.0,385.0,40.0,79.0,,
2018-04-29 04:00,2.0,359.0,33.0,75.0,,
2018-04-29 05:00,22.0,362.0,39.0,82.0,,
2018-04-29 06:00,26.0,470.0,3.0,75.0,,
2018-04-29 07:00,43.0,817.0,43.0,85.0,,
2018-04-29 08:00,51.0,1011.0,45.0,90.0,,
2018-04-29 09:00,66.0,115.0,44.0,88.0,,
2018-04-29 10:00,74.0,848.0,51.0,103.0,,
2018-04-29 11:00,80.0,931.0,46.0,92.0,,
2018-04-29 12:00,55.0,893.0,57.0,112.0,,
2018-04-29 13:00,61.0,799.0,35.0,69.0,,
2018-04-29 14:00,4.0,716.0,4.0,82.0,,
2018-04-29 15:00,66.0,756.0,26.0,51.0,,
2018-04-29 16:00,68.0,850.0,31.0,58.0,,
2018-04-29 17:00,82.0,946.0,37.0,71.0,,
2018-04-29 18:00,74.0,112.0,42.0,82.0,,
2018-04-29 19:00,61.0,1362.0,47.0,97.0,,
2018-04-29 20:00,47.0,121.0,38.0,72.0,,
2018-04-29 21:00,34.0,604.0,26.0,50.0,,
2018-04-29 22:00,68.0,598.0,21.0,41.0,,
2018-04-29 23:00,55.0,666.0,21.0,39.0,,
2018-04-30 00:00,40.0,313.0,31.0,52.0,,
2018-04-30 01:00,32.0,338.0,28.0,48.0,,
2018-04-30 02:00,47.0,218.0,32.0,52.0,,
2018-04-30 03:00,38.0,186.0,34.0,58.0,,
2018-04-30 04:00,45.0,175.0,28.0,47.0,,
2018-04-30 05:00,43.0,208.0,30.0,49.0,,
2018-04-30 06:00,55.0,299.0,30.0,55.0,,
2018-04-30 07:00,51.0,545.0,27.0,48.0,,
2018-04-30 08:00,55.0,2429.0,26.0,51.0,,
2018-04-30 09:00,66.0,2523.0,36.0,66.0,,
2018-04-30 10:00,72.0,167.0,45.0,88.0,,
2018-04-30 11:00,61.0,1251.0,38.0,74.0,,
2018-04-30 12:00,82.0,1180.0,47.0,92.0,,
2018-04-30 13:00,59.0,1025.0,37.0,53.0,,
2018-04-30 14:00,45.0,1086.0,44.0,82.0,,
2018-04-30 15:00,45.0,382.0,19.0,50.0,,
2018-04-30 16:00,45.0,524.0,17.0,4.0,,
2018-04-30 17:00,70.0,572.0,15.0,41.0,,
2018-04-30 18:00,40.0,725.0,20.0,33.0,,
2018-04-30 19:00,38.0,790.0,18.0,30.0,,
2018-04-30 20:00,30.0,513.0,16.0,25.0,,
2018-04-30 21:00,26.0,440.0,19.0,33.0,,
2018-04-30 22:00,22.0,407.0,23.0,41.0,,
2018-04-30 23:00,2.0,36.0,16.0,30.0,,
2018-05-01 00:00,19.0,274.0,14.0,25.0,,
2018-05-01 01:00,26.0,176.0,12.0,19.0,,
2018-05-01 02:00,22.0,151.0,20.0,35.0,,
2018-05-01 03:00,2.0,136.0,14.0,27.0,,
2018-05-01 04:00,17.0,137.0,14.0,31.0,,
2018-05-01 05:00,2.0,177.0,21.0,48.0,,
2018-05-01 06:00,2.0,323.0,24.0,42.0,,
2018-05-01 07:00,19.0,424.0,29.0,5.0,,
2018-05-01 08:00,38.0,518.0,22.0,40.0,,
2018-05-01 09:00,30.0,563.0,2.0,39.0,,
2018-05-01 10:00,59.0,551.0,20.0,35.0,,
2018-05-01 11:00,57.0,549.0,26.0,47.0,,
2018-05-01 12:00,4.0,463.0,21.0,37.0,,
2018-05-01 13:00,34.0,335.0,24.0,54.0,,
2018-05-01 14:00,36.0,356.0,17.0,29.0,,
2018-05-01 15:00,68.0,366.0,40.0,75.0,,
2018-05-01 16:00,30.0,400.0,29.0,64.0,,
2018-05-01 17:00,40.0,633.0,32.0,58.0,,
2018-05-01 18:00,38.0,550.0,22.0,41.0,,
2018-05-01 19:00,26.0,602.0,2.0,48.0,,
2018-05-01 20:00,26.0,533.0,43.0,87.0,,
2018-05-01 21:00,28.0,540.0,37.0,71.0,,
2018-05-01 22:00,24.0,39.0,36.0,74.0,,
2018-05-01 23:00,24.0,355.0,33.0,62.0,,
2018-05-02 00:00,24.0,258.0,34.0,67.0,,
2018-05-02 01:00,2.0,183.0,29.0,60.0,,
2018-05-02 02:00,2.0,176.0,29.0,55.0,,
2018-05-02 03:00,32.0,159.0,25.0,47.0,,
2018-05-02 04:00,45.0,176.0,2.0,45.0,,
2018-05-02 05:00,38.0,196.0,24.0,49.0,,
2018-05-02 06:00,26.0,362.0,20.0,35.0,,
2018-05-02 07:00,34.0,776.0,20.0,38.0,,
2018-05-02 08:00,43.0,1595.0,17.0,47.0,,
2018-05-02 09:00,30.0,849.0,30.0,60.0,,
2018-05-02 10:00,30.0,815.0,33.0,64.0,,
2018-05-02 11:00,4.0,683.0,27.0,5.0,,
2018-05-02 12:00,38.0,728.0,33.0,65.0,,
2018-05-02 13:00,28.0,536.0,30.0,60.0,,
2018-05-02 14:00,24.7,522.7,39.6,79.4,,
2018-04-26 00:00,14.0,298.0,27.0,47.0,,
2018-04-26 01:00,18.0,247.0,28.0,47.0,,
2018-04-26 02:00,10.0,218.0,27.0,46.0,,
2018-04-26 03:00,12.0,200.0,31.0,51.0,,
2018-04-26 04:00,7.0,213.0,35.0,58.0,,
2018-04-26 05:00,10.0,275.0,34.0,67.0,,
2018-04-26 06:00,18.0,447.0,32.0,65.0,,
2018-04-26 07:00,18.0,908.0,33.0,68.0,,
2018-04-26 08:00,18.0,1970.0,37.0,76.0,,
2018-04-26 09:00,31.0,1658.0,42.0,82.0,,
2018-04-26 10:00,40.0,1105.0,3.0,72.0,,
2018-04-26 11:00,33.0,1145.0,29.0,56.0,,
2018-04-26 12:00,3.0,1116.0,3.0,63.0,,
2018-04-26 13:00,35.0,84.0,25.0,5.0,,
2018-04-26 14:00,38.0,872.0,30.0,59.0,,
2018-04-26 15:00,36.0,616.0,20.0,42.0,,
2018-04-26 16:00,51.0,622.0,27.0,5.0,,
2018-04-26 17:00,30.0,1109.0,21.0,45.0,,
2018-04-26 18:00,21.0,1197.0,22.0,39.0,,
2018-04-26 19:00,21.0,887.0,27.0,5.0,,
2018-04-26 20:00,19.0,616.0,22.0,40.0,,
2018-04-26 21:00,19.0,518.0,12.0,25.0,,
2018-04-26 22:00,15.0,529.0,18.0,34.0,,
2018-04-26 23:00,15.0,439.0,8.0,14.0,,
2018-05-01 14:00,36.3,356.5,17.2,29.6,,
2018-04-21 00:00,26.0,290.0,23.0,53.0,,
2018-04-21 01:00,2.0,217.0,28.0,60.0,,
2018-04-21 02:00,2.0,174.0,27.0,55.0,,
2018-04-21 03:00,19.0,136.0,23.0,54.0,,
2018-04-21 04:00,17.0,131.0,32.0,70.0,,
2018-04-21 05:00,2.0,153.0,37.0,71.0,,
2018-04-21 06:00,22.0,310.0,43.0,85.0,,
2018-04-21 07:00,17.0,512.0,36.0,74.0,,
2018-04-21 08:00,2.0,990.0,35.0,71.0,,
2018-04-21 09:00,26.0,892.0,31.0,55.0,,
2018-04-21 10:00,28.0,704.0,26.0,51.0,,
2018-04-21 11:00,26.0,610.0,25.0,47.0,,
2018-04-21 12:00,30.0,684.0,22.0,41.0,,
2018-04-21 13:00,45.0,525.0,31.0,61.0,,
2018-04-21 14:00,53.0,436.0,36.0,74.0,,
2018-04-21 15:00,74.0,469.0,20.0,40.0,,
2018-04-21 16:00,4.0,531.0,22.0,43.0,,
2018-04-21 17:00,30.0,62.0,26.0,56.0,,
2018-04-21 18:00,34.0,546.0,27.0,50.0,,
2018-04-21 19:00,30.0,546.0,30.0,61.0,,
2018-04-21 20:00,28.0,445.0,3.0,59.0,,
2018-04-21 21:00,32.0,519.0,30.0,59.0,,
2018-04-21 22:00,22.0,295.0,22.0,45.0,,
2018-04-21 23:00,24.0,296.0,24.0,46.0,,
2018-04-22 00:00,2.0,187.0,32.0,52.0,,
2018-04-22 01:00,19.0,135.0,41.0,62.0,,
2018-04-22 02:00,22.0,111.0,41.0,60.0,,
2018-04-22 03:00,2.0,115.0,30.0,56.0,,
2018-04-22 04:00,17.0,102.0,26.0,46.0,,
2018-04-22 05:00,24.0,168.0,42.0,62.0,,
2018-04-22 06:00,24.0,238.0,44.0,67.0,,
2018-04-22 07:00,32.0,442.0,41.0,61.0,,
2018-04-22 08:00,32.0,56.0,42.0,62.0,,
2018-04-22 09:00,26.0,603.0,38.0,58.0,,
2018-04-22 10:00,30.0,726.0,4.0,71.0,,
2018-04-22 11:00,30.0,556.0,43.0,65.0,,
2018-04-22 12:00,38.0,613.0,47.0,72.0,,
2018-04-22 13:00,47.0,457.0,41.0,60.0,,
2018-04-22 14:00,48.0,551.0,3.0,61.0,,
2018-04-22 15:00,66.0,442.0,22.0,47.0,,
2018-04-22 16:00,68.0,579.0,22.0,54.0,,
2018-04-22 17:00,24.0,583.0,21.0,5.0,,
2018-04-22 18:00,34.0,563.0,29.0,59.0,,
2018-04-22 19:00,32.0,521.0,37.0,76.0,,
2018-04-22 20:00,36.0,56.0,43.0,86.0,,
2018-04-22 21:00,32.0,430.0,24.0,50.0,,
2018-04-22 22:00,30.0,381.0,58.0,98.0,,
2018-04-22 23:00,26.0,325.0,36.0,63.0,,
2018-04-23 00:00,24.0,196.0,30.0,54.0,,
2018-04-23 01:00,28.0,144.0,31.0,54.0,,
2018-04-23 02:00,2.0,116.0,30.0,53.0,,
2018-04-23 03:00,22.0,97.0,34.0,58.0,,
2018-04-23 04:00,17.0,110.0,38.0,64.0,,
2018-04-23 05:00,2.0,173.0,52.0,75.0,,
2018-04-23 06:00,28.0,344.0,52.0,76.0,,
2018-04-23 07:00,28.0,806.0,46.0,75.0,,
2018-04-23 08:00,28.0,1867.0,47.0,83.0,,
2018-04-23 09:00,28.0,1397.0,47.0,91.0,,
2018-04-23 10:00,38.0,844.0,39.0,80.0,,
2018-04-23 11:00,30.0,883.0,33.0,65.0,,
2018-04-23 12:00,34.0,855.0,37.0,71.0,,
2018-04-23 13:00,32.0,582.0,30.0,61.0,,
2018-04-23 14:00,36.0,611.0,35.0,68.0,,
2018-04-23 15:00,51.0,599.0,31.0,62.0,,
2018-04-23 16:00,66.0,60.0,38.0,75.0,,
2018-04-23 17:00,45.0,1093.0,31.0,67.0,,
2018-04-23 18:00,36.0,1181.0,33.0,60.0,,
2018-04-23 19:00,36.0,871.0,38.0,76.0,,
2018-04-23 20:00,34.0,600.0,32.0,61.0,,
2018-04-23 21:00,34.0,502.0,24.0,46.0,,
2018-04-23 22:00,30.0,513.0,28.0,55.0,,
2018-04-23 23:00,30.0,423.0,19.0,35.0,,
2018-04-24 00:00,30.0,306.0,23.0,47.0,,
2018-04-24 01:00,36.0,331.0,24.0,46.0,,
2018-04-24 02:00,36.0,300.0,39.0,77.0,,
2018-04-24 03:00,30.0,239.0,28.0,55.0,,
2018-04-24 04:00,32.0,245.0,31.0,60.0,,
2018-04-24 05:00,32.0,379.0,37.0,73.0,,
2018-04-24 06:00,38.0,536.0,52.0,111.0,,
2018-04-24 07:00,40.0,86.0,57.0,129.0,,
2018-04-24 08:00,47.0,1906.0,31.0,67.0,,
2018-04-24 09:00,32.0,1248.0,29.0,56.0,,
2018-04-24 10:00,4.0,1167.0,37.0,72.0,,
2018-04-24 11:00,38.0,1090.0,3.0,65.0,,
2018-04-24 12:00,40.0,1162.0,26.0,52.0,,
2018-04-24 13:00,28.0,751.0,18.0,36.0,,
2018-04-24 14:00,31.0,784.0,33.0,67.0,,
2018-04-24 15:00,41.0,761.0,27.0,55.0,,
2018-04-24 16:00,56.0,767.0,34.0,6.0,,
2018-04-24 17:00,35.0,1254.0,28.0,59.0,,
2018-04-24 18:00,26.0,1342.0,29.0,52.0,,
2018-04-24 19:00,26.0,1032.0,34.0,6.0,,
2018-04-24 20:00,24.0,761.0,29.0,53.0,,
2018-04-24 21:00,24.0,663.0,20.0,38.0,,
2018-04-24 22:00,20.0,674.0,25.0,47.0,,
2018-04-24 23:00,20.0,584.0,15.0,27.0,,
2018-04-25 00:00,20.0,467.0,19.0,39.0,,
2018-04-25 01:00,26.0,492.0,2.0,38.0,,
2018-04-25 02:00,26.0,461.0,35.0,70.0,,
2018-04-25 03:00,20.0,400.0,24.0,47.0,,
2018-04-25 04:00,22.0,406.0,27.0,52.0,,
2018-04-25 05:00,22.0,540.0,33.0,65.0,,
2018-04-25 06:00,2.0,697.0,29.0,55.0,,
2018-04-25 07:00,29.0,1023.0,38.0,71.0,,
2018-04-25 08:00,37.0,2067.0,42.0,89.0,,
2018-04-25 09:00,22.0,1409.0,26.0,58.0,,
2018-04-25 10:00,31.0,1328.0,34.0,64.0,,
2018-04-25 11:00,2.0,1251.0,26.0,5.0,,
2018-04-25 12:00,29.0,1323.0,22.0,44.0,,
2018-04-25 13:00,18.0,912.0,24.0,48.0,,
2018-04-25 14:00,2.0,945.0,29.0,59.0,,
2018-04-25 15:00,56.0,544.0,21.0,40.0,,
2018-04-25 16:00,58.0,68.0,25.0,47.0,,
2018-04-25 17:00,14.0,685.0,18.0,43.0,,
2018-04-25 18:00,24.0,666.0,26.0,54.0,,
2018-04-25 19:00,22.0,623.0,3.0,7.0,,
2018-04-25 20:00,26.0,666.0,40.0,79.0,,
2018-04-25 21:00,22.0,533.0,2.0,43.0,,
2018-04-25 22:00,20.0,484.0,47.0,92.0,,
2018-04-25 23:00,16.0,427.0,3.0,56.0,,
2018-04-26 08:00,18.5,1970.4,37.7,76.8,,
2018-04-25 14:00,21.0,945.3,29.4,59.3,,
2018-04-19 00:00,28.0,474.0,46.0,94.0,,
2018-04-19 01:00,28.0,421.0,42.0,88.0,,
2018-04-19 02:00,32.0,422.0,39.0,84.0,,
2018-04-19 03:00,45.0,535.0,32.0,71.0,,
2018-04-19 04:00,32.0,729.0,33.0,65.0,,
2018-04-19 05:00,53.0,52.0,26.0,54.0,,
2018-04-19 06:00,53.0,794.0,38.0,78.0,,
2018-04-19 07:00,59.0,1247.0,34.0,70.0,,
2018-04-19 08:00,61.0,1491.0,36.0,77.0,,
2018-04-19 09:00,6.0,919.0,42.0,88.0,,
2018-04-19 10:00,4.0,610.0,42.0,86.0,,
2018-04-19 11:00,45.0,639.0,36.0,73.0,,
2018-04-19 12:00,40.0,704.0,43.0,88.0,,
2018-04-19 13:00,47.0,659.0,4.0,85.0,,
2018-04-19 14:00,42.0,612.0,50.0,100.0,,
2018-04-19 15:00,10.0,673.0,36.0,62.0,,
2018-04-19 16:00,66.0,840.0,42.0,78.0,,
2018-04-19 17:00,64.0,933.0,52.0,95.0,,
2018-04-19 18:00,82.0,1340.0,58.0,108.0,,
2018-04-19 19:00,6.0,1059.0,50.0,92.0,,
2018-04-19 20:00,55.0,918.0,37.0,65.0,,
2018-04-19 21:00,61.0,640.0,43.0,78.0,,
2018-04-19 22:00,47.0,570.0,37.0,64.0,,
2018-04-19 23:00,4.0,416.0,32.0,57.0,,
2018-04-20 00:00,40.0,329.0,31.0,52.0,,
2018-04-20 01:00,34.0,294.0,28.0,48.0,,
2018-04-20 02:00,32.0,288.0,32.0,52.0,,
2018-04-20 03:00,26.0,297.0,34.0,58.0,,
2018-04-20 04:00,24.0,305.0,28.0,47.0,,
2018-04-20 05:00,34.0,365.0,30.0,49.0,,
2018-04-20 06:00,43.0,511.0,30.0,55.0,,
2018-04-20 07:00,40.0,764.0,27.0,48.0,,
2018-04-20 08:00,53.0,1318.0,26.0,51.0,,
2018-04-20 09:00,55.0,1019.0,36.0,66.0,,
2018-04-20 10:00,55.0,814.0,45.0,88.0,,
2018-04-20 11:00,6.0,899.0,38.0,74.0,,
2018-04-20 12:00,59.0,922.0,47.0,92.0,,
2018-04-20 13:00,51.0,872.0,37.0,53.0,,
2018-04-20 14:00,47.0,741.0,44.0,82.0,,
2018-04-20 15:00,66.0,65.0,31.0,60.0,,
2018-04-20 16:00,45.0,719.0,36.0,73.0,,
2018-04-20 17:00,57.0,1265.0,22.0,48.0,,
2018-04-20 18:00,32.0,1028.0,15.0,32.0,,
2018-04-20 19:00,34.0,858.0,26.0,53.0,,
2018-04-20 20:00,30.0,658.0,15.0,33.0,,
2018-04-20 21:00,28.0,553.0,22.0,4.0,,
2018-04-20 22:00,28.0,597.0,34.0,71.0,,
2018-04-20 23:00,30.0,430.0,16.0,36.0,,
2018-04-23 14:00,36.3,611.5,35.2,68.4,,
2018-04-18 00:00,47.0,480.0,31.0,52.0,,
2018-04-18 01:00,47.0,452.0,28.0,48.0,,
2018-04-18 02:00,38.0,414.0,32.0,52.0,,
2018-04-18 03:00,43.0,419.0,34.0,58.0,,
2018-04-18 04:00,47.0,566.0,28.0,47.0,,
2018-04-18 05:00,43.0,588.0,30.0,49.0,,
2018-04-18 06:00,74.0,844.0,30.0,55.0,,
2018-04-18 07:00,61.0,874.0,27.0,48.0,,
2018-04-18 08:00,80.0,1705.0,26.0,51.0,,
2018-04-18 09:00,80.0,1357.0,36.0,66.0,,
2018-04-18 10:00,70.0,1364.0,45.0,88.0,,
2018-04-18 11:00,80.0,983.0,38.0,74.0,,
2018-04-18 12:00,76.0,825.0,47.0,92.0,,
2018-04-18 13:00,71.0,775.0,37.0,53.0,,
2018-04-18 14:00,68.0,787.0,44.0,82.0,,
2018-04-18 15:00,45.0,668.0,29.0,6.0,,
2018-04-18 16:00,49.0,560.0,38.0,75.0,,
2018-04-18 17:00,38.0,1141.0,32.0,66.0,,
2018-04-18 18:00,55.0,2000.0,43.0,90.0,,
2018-04-18 19:00,66.0,2050.0,46.0,96.0,,
2018-04-18 20:00,51.0,800.0,38.0,8.0,,
2018-04-18 21:00,4.0,849.0,3.0,6.0,,
2018-04-18 22:00,40.0,753.0,22.0,61.0,,
2018-04-18 23:00,4.0,611.0,36.0,7.0,,
2018-04-09 00:00,26.0,488.0,25.0,50.0,,
2018-04-09 01:00,3.0,363.0,22.0,46.0,,
2018-04-09 02:00,39.0,315.0,26.0,50.0,,
2018-04-09 03:00,47.0,305.0,28.0,56.0,,
2018-04-09 04:00,35.0,312.0,22.0,45.0,,
2018-04-09 05:00,35.0,321.0,23.0,47.0,,
2018-04-09 06:00,35.0,458.0,24.0,53.0,,
2018-04-09 07:00,35.0,49.0,21.0,46.0,,
2018-04-09 08:00,60.0,745.0,19.0,49.0,,
2018-04-09 09:00,18.0,759.0,30.0,64.0,,
2018-04-09 10:00,41.0,670.0,38.0,79.0,,
2018-04-09 11:00,22.0,73.0,44.0,93.0,,
2018-04-09 12:00,30.0,609.0,46.0,96.0,,
2018-04-09 13:00,45.0,539.0,41.0,80.0,,
2018-04-09 14:00,49.0,463.0,3.0,64.0,,
2018-04-09 15:00,8.0,478.0,34.0,66.0,,
2018-04-09 16:00,91.0,535.0,2.0,50.0,,
2018-04-09 17:00,70.0,789.0,31.0,6.0,,
2018-04-09 18:00,70.0,867.0,29.0,60.0,,
2018-04-09 19:00,64.0,67.0,24.0,57.0,,
2018-04-09 20:00,70.0,555.0,2.0,43.0,,
2018-04-09 21:00,68.0,514.0,46.0,96.0,,
2018-04-09 22:00,70.0,404.0,4.0,90.0,,
2018-04-09 23:00,61.0,395.0,38.0,7.0,,
2018-04-10 00:00,47.0,326.0,32.0,61.0,,
2018-04-10 01:00,53.0,271.0,29.0,54.0,,
2018-04-10 02:00,59.0,244.0,26.0,46.0,,
2018-04-10 03:00,55.0,249.0,34.0,67.0,,
2018-04-10 04:00,47.0,256.0,35.0,69.0,,
2018-04-10 05:00,43.0,295.0,40.0,8.0,,
2018-04-10 06:00,47.0,384.0,41.0,84.0,,
2018-04-10 07:00,53.0,591.0,43.0,90.0,,
2018-04-10 08:00,53.0,1439.0,5.0,108.0,,
2018-04-10 09:00,70.0,985.0,46.0,96.0,,
2018-04-10 10:00,61.0,978.0,53.0,114.0,,
2018-04-10 11:00,55.0,725.0,40.0,82.0,,
2018-04-10 14:00,91.0,786.0,36.0,71.0,,
2018-04-10 15:00,47.0,612.0,36.0,62.0,,
2018-04-10 16:00,45.0,749.0,42.0,78.0,,
2018-04-10 17:00,45.0,929.0,52.0,95.0,,
2018-04-10 18:00,51.0,90.0,58.0,108.0,,
2018-04-10 19:00,40.0,742.0,50.0,92.0,,
2018-04-10 20:00,43.0,58.0,37.0,65.0,,
2018-04-10 21:00,34.0,546.0,43.0,78.0,,
2018-04-10 22:00,43.0,540.0,37.0,64.0,,
2018-04-10 23:00,36.0,456.0,32.0,57.0,,
2018-04-11 00:00,32.0,31.0,31.0,52.0,,
2018-04-11 01:00,36.0,257.0,28.0,48.0,,
2018-04-11 02:00,30.0,231.0,32.0,52.0,,
2018-04-11 03:00,26.0,220.0,34.0,58.0,,
2018-04-11 04:00,24.0,219.0,28.0,47.0,,
2018-04-11 05:00,15.0,325.0,30.0,49.0,,
2018-04-11 06:00,26.0,623.0,30.0,55.0,,
2018-04-11 07:00,34.0,1053.0,27.0,48.0,,
2018-04-11 08:00,53.0,3088.0,26.0,51.0,,
2018-04-11 09:00,51.0,2249.0,36.0,66.0,,
2018-04-11 10:00,38.0,1434.0,45.0,88.0,,
2018-04-11 11:00,36.0,1375.0,38.0,74.0,,
2018-04-11 12:00,40.0,964.0,47.0,92.0,,
2018-04-11 13:00,36.0,894.0,37.0,53.0,,
2018-04-11 14:00,33.0,822.0,44.0,82.0,,
2018-04-11 15:00,36.0,752.0,27.0,58.0,,
2018-04-11 16:00,4.0,850.0,32.0,68.0,,
2018-04-11 17:00,38.0,1116.0,38.0,76.0,,
2018-04-11 18:00,36.0,1199.0,43.0,89.0,,
2018-04-11 19:00,34.0,875.0,38.0,78.0,,
2018-04-11 20:00,38.0,739.0,3.0,71.0,,
2018-04-11 21:00,34.0,564.0,44.0,95.0,,
2018-04-11 22:00,34.0,503.0,43.0,89.0,,
2018-04-11 23:00,28.0,362.0,30.0,71.0,,
2018-04-12 00:00,28.0,272.0,55.0,116.0,,
2018-04-12 01:00,30.0,224.0,68.0,126.0,,
2018-04-12 02:00,24.0,20.0,46.0,97.0,,
2018-04-12 03:00,30.0,203.0,61.0,125.0,,
2018-04-12 04:00,2.0,202.0,60.0,129.0,,
2018-04-12 05:00,2.0,234.0,50.0,116.0,,
2018-04-12 06:00,22.0,340.0,48.0,97.0,,
2018-04-12 07:00,22.0,716.0,39.0,81.0,,
2018-04-12 08:00,32.0,1956.0,48.0,97.0,,
2018-04-12 09:00,32.0,1185.0,37.0,71.0,,
2018-04-12 10:00,28.0,872.0,51.0,116.0,,
2018-04-12 11:00,36.0,1078.0,57.0,121.0,,
2018-04-12 12:00,24.0,1040.0,42.0,86.0,,
2018-04-12 13:00,30.0,676.0,35.0,71.0,,
2018-04-12 14:00,26.7,765.7,27.5,58.6,,
2018-04-07 00:00,26.0,504.0,32.0,61.0,,
2018-04-07 01:00,26.0,468.0,31.0,62.0,,
2018-04-07 02:00,24.0,50.0,29.0,59.0,,
2018-04-07 03:00,1.0,512.0,21.0,50.0,,
2018-04-07 04:00,11.0,541.0,27.0,57.0,,
2018-04-07 05:00,13.0,74.0,28.0,50.0,,
2018-04-07 06:00,22.0,890.0,3.0,60.0,,
2018-04-07 07:00,36.0,1857.0,3.0,65.0,,
2018-04-07 08:00,3.0,1375.0,38.0,79.0,,
2018-04-07 09:00,28.0,1094.0,39.0,57.0,,
2018-04-07 10:00,18.0,840.0,38.0,72.0,,
2018-04-07 11:00,3.0,85.0,34.0,6.0,,
2018-04-07 12:00,34.0,885.0,28.0,53.0,,
2018-04-07 13:00,26.0,827.0,23.0,42.0,,
2018-04-07 14:00,41.0,828.0,43.0,88.0,,
2018-04-07 15:00,4.0,662.0,26.0,54.0,,
2018-04-07 16:00,30.0,857.0,35.0,68.0,,
2018-04-07 17:00,38.0,976.0,29.0,59.0,,
2018-04-07 18:00,47.0,1051.0,4.0,82.0,,
2018-04-07 19:00,40.0,849.0,4.0,88.0,,
2018-04-07 20:00,36.0,619.0,35.0,75.0,,
2018-04-07 21:00,30.0,55.0,31.0,59.0,,
2018-04-07 22:00,34.0,434.0,20.0,53.0,,
2018-04-07 23:00,34.0,419.0,33.0,68.0,,
2018-04-08 00:00,34.0,265.0,43.0,86.0,,
2018-04-08 01:00,30.0,219.0,39.0,80.0,,
2018-04-08 02:00,24.0,171.0,36.0,77.0,,
2018-04-08 03:00,24.0,217.0,3.0,64.0,,
2018-04-08 04:00,28.0,174.0,30.0,58.0,,
2018-04-08 05:00,34.0,234.0,23.0,47.0,,
2018-04-08 06:00,32.0,387.0,35.0,70.0,,
2018-04-08 07:00,32.0,58.0,32.0,62.0,,
2018-04-08 08:00,40.0,162.0,34.0,70.0,,
2018-04-08 09:00,70.0,1162.0,39.0,81.0,,
2018-04-08 10:00,57.0,1246.0,39.0,79.0,,
2018-04-08 11:00,51.0,1011.0,33.0,66.0,,
2018-04-08 12:00,47.0,661.0,41.0,80.0,,
2018-04-08 13:00,47.0,568.0,39.0,77.0,,
2018-04-08 14:00,41.0,621.0,47.0,93.0,,
2018-04-08 15:00,51.0,974.0,38.0,76.0,,
2018-04-08 16:00,9.0,1192.0,3.0,71.0,,
2018-04-08 17:00,54.0,963.0,29.0,55.0,,
2018-04-08 18:00,41.0,1009.0,40.0,8.0,,
2018-04-08 19:00,45.0,1060.0,39.0,80.0,,
2018-04-08 20:00,37.0,76.0,36.0,66.0,,
2018-04-08 21:00,33.0,767.0,30.0,61.0,,
2018-04-08 22:00,33.0,619.0,32.0,69.0,,
2018-04-08 23:00,39.0,707.0,3.0,82.0,,
2018-04-11 14:00,33.6,822.1,44.5,82.5,,
2018-03-31 00:00,24.0,562.0,24.0,41.0,,
2018-03-31 01:00,28.0,510.0,25.0,54.0,,
2018-03-31 02:00,28.0,48.0,29.0,58.0,,
2018-03-31 03:00,26.0,406.0,23.0,47.0,,
2018-03-31 04:00,28.0,361.0,37.0,73.0,,
2018-03-31 05:00,28.0,392.0,36.0,77.0,,
2018-03-31 06:00,24.0,456.0,42.0,81.0,,
2018-03-31 07:00,22.0,559.0,44.0,85.0,,
2018-03-31 08:00,30.0,1014.0,56.0,102.0,,
2018-03-31 09:00,45.0,921.0,41.0,85.0,,
2018-03-31 10:00,40.0,697.0,26.0,54.0,,
2018-03-31 11:00,26.0,598.0,21.0,43.0,,
2018-03-31 12:00,43.0,658.0,36.0,72.0,,
2018-03-31 13:00,40.0,48.0,32.0,61.0,,
2018-03-31 14:00,51.0,518.0,34.0,67.0,,
2018-03-31 15:00,53.0,872.0,37.0,72.0,,
2018-03-31 16:00,97.0,1089.0,33.0,67.0,,
2018-03-31 17:00,57.0,861.0,28.0,51.0,,
2018-03-31 18:00,43.0,907.0,39.0,84.0,,
2018-03-31 19:00,47.0,958.0,37.0,76.0,,
2018-03-31 20:00,40.0,663.0,35.0,62.0,,
2018-03-31 21:00,36.0,664.0,28.0,57.0,,
2018-03-31 22:00,36.0,517.0,31.0,65.0,,
2018-03-31 23:00,4.0,605.0,37.0,78.0,,
2018-04-01 00:00,28.0,385.0,23.0,46.0,,
2018-04-01 01:00,34.0,261.0,21.0,42.0,,
2018-04-01 02:00,4.0,213.0,25.0,4.0,,
2018-04-01 03:00,49.0,202.0,27.0,52.0,,
2018-04-01 04:00,38.0,210.0,21.0,41.0,,
2018-04-01 05:00,38.0,21.0,22.0,43.0,,
2018-04-01 06:00,38.0,356.0,22.0,49.0,,
2018-04-01 07:00,38.0,392.0,19.0,42.0,,
2018-04-01 08:00,6.0,643.0,18.0,45.0,,
2018-04-01 09:00,2.0,657.0,29.0,60.0,,
2018-04-01 10:00,43.0,56.0,37.0,75.0,,
2018-04-01 11:00,24.0,631.0,43.0,89.0,,
2018-04-01 12:00,32.0,506.0,4.0,92.0,,
2018-04-01 13:00,47.0,437.0,40.0,76.0,,
2018-04-01 14:00,51.0,360.0,30.0,60.0,,
2018-04-01 15:00,53.0,872.0,34.0,66.0,,
2018-04-01 16:00,97.0,1089.0,3.0,61.0,,
2018-04-01 17:00,57.0,861.0,25.0,45.0,,
2018-04-01 18:00,43.0,907.0,36.0,78.0,,
2018-04-01 19:00,47.0,958.0,35.0,7.0,,
2018-04-01 20:00,40.0,663.0,32.0,56.0,,
2018-04-01 21:00,36.0,664.0,26.0,51.0,,
2018-04-01 22:00,36.0,517.0,28.0,59.0,,
2018-04-01 23:00,4.0,605.0,3.0,72.0,,
2018-04-02 00:00,28.0,385.0,21.0,40.0,,
2018-04-02 01:00,34.0,261.0,18.0,3.0,,
2018-04-02 02:00,4.0,213.0,22.0,41.0,,
2018-04-02 03:00,49.0,202.0,24.0,4.0,,
2018-04-02 04:00,38.0,210.0,18.0,35.0,,
2018-04-02 05:00,38.0,21.0,19.0,37.0,,
2018-04-02 06:00,38.0,356.0,20.0,4.0,,
2018-04-02 07:00,38.0,392.0,17.0,36.0,,
2018-04-02 08:00,6.0,643.0,15.0,39.0,,
2018-04-02 09:00,2.0,657.0,26.0,54.0,,
2018-04-02 10:00,43.0,56.0,34.0,69.0,,
2018-04-02 11:00,24.0,631.0,40.0,8.0,,
2018-04-02 12:00,32.0,506.0,42.0,86.0,,
2018-04-02 13:00,47.0,437.0,37.0,70.0,,
2018-04-02 14:00,51.0,360.0,2.0,55.0,,
2018-04-02 15:00,45.0,515.0,35.0,8.0,,
2018-04-02 16:00,61.0,625.0,33.0,77.0,,
2018-04-02 17:00,53.0,829.0,31.0,74.0,,
2018-04-02 18:00,4.0,912.0,36.0,6.0,,
2018-04-02 19:00,40.0,801.0,34.0,63.0,,
2018-04-02 20:00,32.0,554.0,32.0,58.0,,
2018-04-02 21:00,30.0,607.0,35.0,66.0,,
2018-04-02 22:00,34.0,510.0,39.0,74.0,,
2018-04-02 23:00,30.0,426.0,32.0,63.0,,
2018-04-03 00:00,26.0,325.0,30.0,58.0,,
2018-04-03 01:00,32.0,345.0,28.0,52.0,,
2018-04-03 02:00,32.0,290.0,26.0,48.0,,
2018-04-03 03:00,32.0,256.0,30.0,60.0,,
2018-04-03 04:00,40.0,246.0,30.0,64.0,,
2018-04-03 05:00,40.0,299.0,37.0,81.0,,
2018-04-03 06:00,32.0,358.0,40.0,75.0,,
2018-04-03 07:00,40.0,560.0,45.0,87.0,,
2018-04-03 08:00,24.0,1189.0,38.0,73.0,,
2018-04-03 09:00,32.0,878.0,3.0,72.0,,
2018-04-03 10:00,30.0,857.0,38.0,75.0,,
2018-04-03 11:00,34.0,578.0,47.0,88.0,,
2018-04-03 12:00,15.0,671.0,28.0,54.0,,
2018-04-03 13:00,36.0,497.0,24.0,47.0,,
2018-04-03 14:00,68.0,461.0,33.0,62.0,,
2018-04-03 15:00,70.0,430.0,3.0,65.0,,
2018-04-03 16:00,47.0,573.0,40.0,79.0,,
2018-04-03 17:00,38.0,1209.0,35.0,70.0,,
2018-04-03 18:00,40.0,749.0,46.0,9.0,,
2018-04-03 19:00,4.0,782.0,49.0,100.0,,
2018-04-03 20:00,34.0,778.0,41.0,86.0,,
2018-04-03 21:00,40.0,672.0,36.0,70.0,,
2018-04-03 22:00,36.0,665.0,25.0,64.0,,
2018-04-03 23:00,30.0,557.0,39.0,79.0,,
2018-04-04 00:00,30.0,442.0,49.0,9.0,,
2018-04-04 01:00,30.0,364.0,45.0,92.0,,
2018-04-04 02:00,26.0,318.0,42.0,88.0,,
2018-04-04 03:00,26.0,298.0,35.0,75.0,,
2018-04-04 04:00,24.0,246.0,36.0,69.0,,
2018-04-04 05:00,26.0,295.0,29.0,58.0,,
2018-04-04 06:00,30.0,472.0,41.0,8.0,,
2018-04-04 07:00,32.0,819.0,37.0,7.0,,
2018-04-04 08:00,26.0,1640.0,39.0,81.0,,
2018-04-04 09:00,53.0,1045.0,45.0,92.0,,
2018-04-04 10:00,51.6,662.3,45.3,90.3,,
